%!PS-Adobe-3.0 EPSF-3.0
%%Creator: (MATLAB, The Mathworks, Inc. Version 8.6.0.267246 \(R2015b\). Operating System: Windows 8)
%%Title: C:/Users/ZNS/Dropbox/Dissertation/Figures/SMFS/example-segm.eps
%%CreationDate: 2016-02-02T11:31:52
%%Pages: (atend)
%%BoundingBox: 0 0 420 315
%%LanguageLevel: 2
%%EndComments
%%BeginProlog
%%BeginResource: procset (Apache XML Graphics Std ProcSet) 1.2 0
%%Version: 1.2 0
%%Copyright: (Copyright 2001-2003,2010 The Apache Software Foundation. License terms: http://www.apache.org/licenses/LICENSE-2.0)
/bd{bind def}bind def
/ld{load def}bd
/GR/grestore ld
/M/moveto ld
/LJ/setlinejoin ld
/C/curveto ld
/f/fill ld
/LW/setlinewidth ld
/GC/setgray ld
/t/show ld
/N/newpath ld
/CT/concat ld
/cp/closepath ld
/S/stroke ld
/L/lineto ld
/CC/setcmykcolor ld
/A/ashow ld
/GS/gsave ld
/RC/setrgbcolor ld
/RM/rmoveto ld
/ML/setmiterlimit ld
/re {4 2 roll M
1 index 0 rlineto
0 exch rlineto
neg 0 rlineto
cp } bd
/_ctm matrix def
/_tm matrix def
/BT { _ctm currentmatrix pop matrix _tm copy pop 0 0 moveto } bd
/ET { _ctm setmatrix } bd
/iTm { _ctm setmatrix _tm concat } bd
/Tm { _tm astore pop iTm 0 0 moveto } bd
/ux 0.0 def
/uy 0.0 def
/F {
  /Tp exch def
  /Tf exch def
  Tf findfont Tp scalefont setfont
  /cf Tf def  /cs Tp def
} bd
/ULS {currentpoint /uy exch def /ux exch def} bd
/ULE {
  /Tcx currentpoint pop def
  gsave
  newpath
  cf findfont cs scalefont dup
  /FontMatrix get 0 get /Ts exch def /FontInfo get dup
  /UnderlinePosition get Ts mul /To exch def
  /UnderlineThickness get Ts mul /Tt exch def
  ux uy To add moveto  Tcx uy To add lineto
  Tt setlinewidth stroke
  grestore
} bd
/OLE {
  /Tcx currentpoint pop def
  gsave
  newpath
  cf findfont cs scalefont dup
  /FontMatrix get 0 get /Ts exch def /FontInfo get dup
  /UnderlinePosition get Ts mul /To exch def
  /UnderlineThickness get Ts mul /Tt exch def
  ux uy To add cs add moveto Tcx uy To add cs add lineto
  Tt setlinewidth stroke
  grestore
} bd
/SOE {
  /Tcx currentpoint pop def
  gsave
  newpath
  cf findfont cs scalefont dup
  /FontMatrix get 0 get /Ts exch def /FontInfo get dup
  /UnderlinePosition get Ts mul /To exch def
  /UnderlineThickness get Ts mul /Tt exch def
  ux uy To add cs 10 mul 26 idiv add moveto Tcx uy To add cs 10 mul 26 idiv add lineto
  Tt setlinewidth stroke
  grestore
} bd
/QT {
/Y22 exch store
/X22 exch store
/Y21 exch store
/X21 exch store
currentpoint
/Y21 load 2 mul add 3 div exch
/X21 load 2 mul add 3 div exch
/X21 load 2 mul /X22 load add 3 div
/Y21 load 2 mul /Y22 load add 3 div
/X22 load /Y22 load curveto
} bd
/SSPD {
dup length /d exch dict def
{
/v exch def
/k exch def
currentpagedevice k known {
/cpdv currentpagedevice k get def
v cpdv ne {
/upd false def
/nullv v type /nulltype eq def
/nullcpdv cpdv type /nulltype eq def
nullv nullcpdv or
{
/upd true def
} {
/sametype v type cpdv type eq def
sametype {
v type /arraytype eq {
/vlen v length def
/cpdvlen cpdv length def
vlen cpdvlen eq {
0 1 vlen 1 sub {
/i exch def
/obj v i get def
/cpdobj cpdv i get def
obj cpdobj ne {
/upd true def
exit
} if
} for
} {
/upd true def
} ifelse
} {
v type /dicttype eq {
v {
/dv exch def
/dk exch def
/cpddv cpdv dk get def
dv cpddv ne {
/upd true def
exit
} if
} forall
} {
/upd true def
} ifelse
} ifelse
} if
} ifelse
upd true eq {
d k v put
} if
} if
} if
} forall
d length 0 gt {
d setpagedevice
} if
} bd
%%EndResource
%%BeginResource: procset (Apache XML Graphics EPS ProcSet) 1.0 0
%%Version: 1.0 0
%%Copyright: (Copyright 2002-2003 The Apache Software Foundation. License terms: http://www.apache.org/licenses/LICENSE-2.0)
/BeginEPSF { %def
/b4_Inc_state save def         % Save state for cleanup
/dict_count countdictstack def % Count objects on dict stack
/op_count count 1 sub def      % Count objects on operand stack
userdict begin                 % Push userdict on dict stack
/showpage { } def              % Redefine showpage, { } = null proc
0 setgray 0 setlinecap         % Prepare graphics state
1 setlinewidth 0 setlinejoin
10 setmiterlimit [ ] 0 setdash newpath
/languagelevel where           % If level not equal to 1 then
{pop languagelevel             % set strokeadjust and
1 ne                           % overprint to their defaults.
{false setstrokeadjust false setoverprint
} if
} if
} bd
/EndEPSF { %def
count op_count sub {pop} repeat            % Clean up stacks
countdictstack dict_count sub {end} repeat
b4_Inc_state restore
} bd
%%EndResource
%FOPBeginFontDict
%%IncludeResource: font Courier-Bold
%%IncludeResource: font Helvetica
%%IncludeResource: font Courier-BoldOblique
%%IncludeResource: font Courier-Oblique
%%IncludeResource: font Times-Roman
%%IncludeResource: font Helvetica-BoldOblique
%%IncludeResource: font Helvetica-Bold
%%IncludeResource: font Helvetica-Oblique
%%IncludeResource: font Times-BoldItalic
%%IncludeResource: font Courier
%%IncludeResource: font Times-Italic
%%IncludeResource: font Times-Bold
%%IncludeResource: font Symbol
%%IncludeResource: font ZapfDingbats
%FOPEndFontDict
%%BeginResource: encoding WinAnsiEncoding
/WinAnsiEncoding [
/.notdef /.notdef /.notdef /.notdef /.notdef
/.notdef /.notdef /.notdef /.notdef /.notdef
/.notdef /.notdef /.notdef /.notdef /.notdef
/.notdef /.notdef /.notdef /.notdef /.notdef
/.notdef /.notdef /.notdef /.notdef /.notdef
/.notdef /.notdef /.notdef /.notdef /.notdef
/.notdef /.notdef /space /exclam /quotedbl
/numbersign /dollar /percent /ampersand /quotesingle
/parenleft /parenright /asterisk /plus /comma
/hyphen /period /slash /zero /one
/two /three /four /five /six
/seven /eight /nine /colon /semicolon
/less /equal /greater /question /at
/A /B /C /D /E
/F /G /H /I /J
/K /L /M /N /O
/P /Q /R /S /T
/U /V /W /X /Y
/Z /bracketleft /backslash /bracketright /asciicircum
/underscore /quoteleft /a /b /c
/d /e /f /g /h
/i /j /k /l /m
/n /o /p /q /r
/s /t /u /v /w
/x /y /z /braceleft /bar
/braceright /asciitilde /bullet /Euro /bullet
/quotesinglbase /florin /quotedblbase /ellipsis /dagger
/daggerdbl /circumflex /perthousand /Scaron /guilsinglleft
/OE /bullet /Zcaron /bullet /bullet
/quoteleft /quoteright /quotedblleft /quotedblright /bullet
/endash /emdash /asciitilde /trademark /scaron
/guilsinglright /oe /bullet /zcaron /Ydieresis
/space /exclamdown /cent /sterling /currency
/yen /brokenbar /section /dieresis /copyright
/ordfeminine /guillemotleft /logicalnot /sfthyphen /registered
/macron /degree /plusminus /twosuperior /threesuperior
/acute /mu /paragraph /middot /cedilla
/onesuperior /ordmasculine /guillemotright /onequarter /onehalf
/threequarters /questiondown /Agrave /Aacute /Acircumflex
/Atilde /Adieresis /Aring /AE /Ccedilla
/Egrave /Eacute /Ecircumflex /Edieresis /Igrave
/Iacute /Icircumflex /Idieresis /Eth /Ntilde
/Ograve /Oacute /Ocircumflex /Otilde /Odieresis
/multiply /Oslash /Ugrave /Uacute /Ucircumflex
/Udieresis /Yacute /Thorn /germandbls /agrave
/aacute /acircumflex /atilde /adieresis /aring
/ae /ccedilla /egrave /eacute /ecircumflex
/edieresis /igrave /iacute /icircumflex /idieresis
/eth /ntilde /ograve /oacute /ocircumflex
/otilde /odieresis /divide /oslash /ugrave
/uacute /ucircumflex /udieresis /yacute /thorn
/ydieresis
] def
%%EndResource
%FOPBeginFontReencode
/Courier-Bold findfont
dup length dict begin
  {1 index /FID ne {def} {pop pop} ifelse} forall
  /Encoding WinAnsiEncoding def
  currentdict
end
/Courier-Bold exch definefont pop
/Helvetica findfont
dup length dict begin
  {1 index /FID ne {def} {pop pop} ifelse} forall
  /Encoding WinAnsiEncoding def
  currentdict
end
/Helvetica exch definefont pop
/Courier-BoldOblique findfont
dup length dict begin
  {1 index /FID ne {def} {pop pop} ifelse} forall
  /Encoding WinAnsiEncoding def
  currentdict
end
/Courier-BoldOblique exch definefont pop
/Courier-Oblique findfont
dup length dict begin
  {1 index /FID ne {def} {pop pop} ifelse} forall
  /Encoding WinAnsiEncoding def
  currentdict
end
/Courier-Oblique exch definefont pop
/Times-Roman findfont
dup length dict begin
  {1 index /FID ne {def} {pop pop} ifelse} forall
  /Encoding WinAnsiEncoding def
  currentdict
end
/Times-Roman exch definefont pop
/Helvetica-BoldOblique findfont
dup length dict begin
  {1 index /FID ne {def} {pop pop} ifelse} forall
  /Encoding WinAnsiEncoding def
  currentdict
end
/Helvetica-BoldOblique exch definefont pop
/Helvetica-Bold findfont
dup length dict begin
  {1 index /FID ne {def} {pop pop} ifelse} forall
  /Encoding WinAnsiEncoding def
  currentdict
end
/Helvetica-Bold exch definefont pop
/Helvetica-Oblique findfont
dup length dict begin
  {1 index /FID ne {def} {pop pop} ifelse} forall
  /Encoding WinAnsiEncoding def
  currentdict
end
/Helvetica-Oblique exch definefont pop
/Times-BoldItalic findfont
dup length dict begin
  {1 index /FID ne {def} {pop pop} ifelse} forall
  /Encoding WinAnsiEncoding def
  currentdict
end
/Times-BoldItalic exch definefont pop
/Courier findfont
dup length dict begin
  {1 index /FID ne {def} {pop pop} ifelse} forall
  /Encoding WinAnsiEncoding def
  currentdict
end
/Courier exch definefont pop
/Times-Italic findfont
dup length dict begin
  {1 index /FID ne {def} {pop pop} ifelse} forall
  /Encoding WinAnsiEncoding def
  currentdict
end
/Times-Italic exch definefont pop
/Times-Bold findfont
dup length dict begin
  {1 index /FID ne {def} {pop pop} ifelse} forall
  /Encoding WinAnsiEncoding def
  currentdict
end
/Times-Bold exch definefont pop
%FOPEndFontReencode
%%EndProlog
%%Page: 1 1
%%PageBoundingBox: 0 0 420 315
%%BeginPageSetup
[1 0 0 -1 0 315] CT
%%EndPageSetup
GS
[0.75 0 0 0.75 0 0] CT
1 GC
N
0 0 560 420 re
f
GR
GS
[0.75 0 0 0.75 0 0] CT
1 GC
N
0 0 560 420 re
f
GR
GS
[0.75 0 0 0.75 0 0] CT
1 GC
N
73 374 M
507 374 L
507 31 L
73 31 L
cp
f
GR
GS
[0.75 0 0 0.75 0 0] CT
0.149 GC
2 setlinecap
1 LJ
0.667 LW
N
73 374 M
507 374 L
S
GR
GS
[0.75 0 0 0.75 0 0] CT
0.149 GC
2 setlinecap
1 LJ
0.667 LW
N
73 31 M
507 31 L
S
GR
GS
[0.75 0 0 0.75 0 0] CT
0.149 GC
2 setlinecap
1 LJ
0.667 LW
N
95.659 374 M
95.659 369.66 L
S
GR
GS
[0.75 0 0 0.75 0 0] CT
0.149 GC
2 setlinecap
1 LJ
0.667 LW
N
169.464 374 M
169.464 369.66 L
S
GR
GS
[0.75 0 0 0.75 0 0] CT
0.149 GC
2 setlinecap
1 LJ
0.667 LW
N
243.269 374 M
243.269 369.66 L
S
GR
GS
[0.75 0 0 0.75 0 0] CT
0.149 GC
2 setlinecap
1 LJ
0.667 LW
N
317.074 374 M
317.074 369.66 L
S
GR
GS
[0.75 0 0 0.75 0 0] CT
0.149 GC
2 setlinecap
1 LJ
0.667 LW
N
390.88 374 M
390.88 369.66 L
S
GR
GS
[0.75 0 0 0.75 0 0] CT
0.149 GC
2 setlinecap
1 LJ
0.667 LW
N
464.685 374 M
464.685 369.66 L
S
GR
GS
[0.75 0 0 0.75 0 0] CT
0.149 GC
2 setlinecap
1 LJ
0.667 LW
N
95.659 31 M
95.659 35.34 L
S
GR
GS
[0.75 0 0 0.75 0 0] CT
0.149 GC
2 setlinecap
1 LJ
0.667 LW
N
169.464 31 M
169.464 35.34 L
S
GR
GS
[0.75 0 0 0.75 0 0] CT
0.149 GC
2 setlinecap
1 LJ
0.667 LW
N
243.269 31 M
243.269 35.34 L
S
GR
GS
[0.75 0 0 0.75 0 0] CT
0.149 GC
2 setlinecap
1 LJ
0.667 LW
N
317.074 31 M
317.074 35.34 L
S
GR
GS
[0.75 0 0 0.75 0 0] CT
0.149 GC
2 setlinecap
1 LJ
0.667 LW
N
390.88 31 M
390.88 35.34 L
S
GR
GS
[0.75 0 0 0.75 0 0] CT
0.149 GC
2 setlinecap
1 LJ
0.667 LW
N
464.685 31 M
464.685 35.34 L
S
GR
GS
[0.75 0 0 0.75 71.74441 284.50001] CT
0.149 GC
/Helvetica 13 F
GS
[1 0 0 1 0 0] CT
-7.5 14 moveto 
1 -1 scale
(15) t 
GR
GR
GS
[0.75 0 0 0.75 127.09822 284.50001] CT
0.149 GC
/Helvetica 13 F
GS
[1 0 0 1 0 0] CT
-7.5 14 moveto 
1 -1 scale
(20) t 
GR
GR
GS
[0.75 0 0 0.75 182.45203 284.50001] CT
0.149 GC
/Helvetica 13 F
GS
[1 0 0 1 0 0] CT
-7.5 14 moveto 
1 -1 scale
(25) t 
GR
GR
GS
[0.75 0 0 0.75 237.80585 284.50001] CT
0.149 GC
/Helvetica 13 F
GS
[1 0 0 1 0 0] CT
-7.5 14 moveto 
1 -1 scale
(30) t 
GR
GR
GS
[0.75 0 0 0.75 293.15964 284.50001] CT
0.149 GC
/Helvetica 13 F
GS
[1 0 0 1 0 0] CT
-7.5 14 moveto 
1 -1 scale
(35) t 
GR
GR
GS
[0.75 0 0 0.75 348.51345 284.50001] CT
0.149 GC
/Helvetica 13 F
GS
[1 0 0 1 0 0] CT
-7.5 14 moveto 
1 -1 scale
(40) t 
GR
GR
GS
[0.75 0 0 0.75 217.50014 298.24999] CT
0.149 GC
/Helvetica 15 F
GS
[1 0 0 1 0 0] CT
-50 16 moveto 
1 -1 scale
(Extension [nm]) t 
GR
GR
GS
[0.75 0 0 0.75 0 0] CT
0.149 GC
2 setlinecap
1 LJ
0.667 LW
N
73 374 M
73 31 L
S
GR
GS
[0.75 0 0 0.75 0 0] CT
0.149 GC
2 setlinecap
1 LJ
0.667 LW
N
507 374 M
507 31 L
S
GR
GS
[0.75 0 0 0.75 0 0] CT
0.149 GC
2 setlinecap
1 LJ
0.667 LW
N
73 345.054 M
77.34 345.054 L
S
GR
GS
[0.75 0 0 0.75 0 0] CT
0.149 GC
2 setlinecap
1 LJ
0.667 LW
N
73 294.838 M
77.34 294.838 L
S
GR
GS
[0.75 0 0 0.75 0 0] CT
0.149 GC
2 setlinecap
1 LJ
0.667 LW
N
73 244.622 M
77.34 244.622 L
S
GR
GS
[0.75 0 0 0.75 0 0] CT
0.149 GC
2 setlinecap
1 LJ
0.667 LW
N
73 194.406 M
77.34 194.406 L
S
GR
GS
[0.75 0 0 0.75 0 0] CT
0.149 GC
2 setlinecap
1 LJ
0.667 LW
N
73 144.19 M
77.34 144.19 L
S
GR
GS
[0.75 0 0 0.75 0 0] CT
0.149 GC
2 setlinecap
1 LJ
0.667 LW
N
73 93.974 M
77.34 93.974 L
S
GR
GS
[0.75 0 0 0.75 0 0] CT
0.149 GC
2 setlinecap
1 LJ
0.667 LW
N
73 43.758 M
77.34 43.758 L
S
GR
GS
[0.75 0 0 0.75 0 0] CT
0.149 GC
2 setlinecap
1 LJ
0.667 LW
N
507 345.054 M
502.66 345.054 L
S
GR
GS
[0.75 0 0 0.75 0 0] CT
0.149 GC
2 setlinecap
1 LJ
0.667 LW
N
507 294.838 M
502.66 294.838 L
S
GR
GS
[0.75 0 0 0.75 0 0] CT
0.149 GC
2 setlinecap
1 LJ
0.667 LW
N
507 244.622 M
502.66 244.622 L
S
GR
GS
[0.75 0 0 0.75 0 0] CT
0.149 GC
2 setlinecap
1 LJ
0.667 LW
N
507 194.406 M
502.66 194.406 L
S
GR
GS
[0.75 0 0 0.75 0 0] CT
0.149 GC
2 setlinecap
1 LJ
0.667 LW
N
507 144.19 M
502.66 144.19 L
S
GR
GS
[0.75 0 0 0.75 0 0] CT
0.149 GC
2 setlinecap
1 LJ
0.667 LW
N
507 93.974 M
502.66 93.974 L
S
GR
GS
[0.75 0 0 0.75 0 0] CT
0.149 GC
2 setlinecap
1 LJ
0.667 LW
N
507 43.758 M
502.66 43.758 L
S
GR
GS
[0.75 0 0 0.75 50.75 258.7906] CT
0.149 GC
/Helvetica 13 F
GS
[1 0 0 1 0 0] CT
-12 5.5 moveto 
1 -1 scale
(-5) t 
GR
GR
GS
[0.75 0 0 0.75 50.75 221.12858] CT
0.149 GC
/Helvetica 13 F
GS
[1 0 0 1 0 0] CT
-8 5.5 moveto 
1 -1 scale
(0) t 
GR
GR
GS
[0.75 0 0 0.75 50.75 183.46655] CT
0.149 GC
/Helvetica 13 F
GS
[1 0 0 1 0 0] CT
-8 5.5 moveto 
1 -1 scale
(5) t 
GR
GR
GS
[0.75 0 0 0.75 50.75 145.80453] CT
0.149 GC
/Helvetica 13 F
GS
[1 0 0 1 0 0] CT
-15 5.5 moveto 
1 -1 scale
(10) t 
GR
GR
GS
[0.75 0 0 0.75 50.75 108.1425] CT
0.149 GC
/Helvetica 13 F
GS
[1 0 0 1 0 0] CT
-15 5.5 moveto 
1 -1 scale
(15) t 
GR
GR
GS
[0.75 0 0 0.75 50.75 70.48047] CT
0.149 GC
/Helvetica 13 F
GS
[1 0 0 1 0 0] CT
-15 5.5 moveto 
1 -1 scale
(20) t 
GR
GR
GS
[0.75 0 0 0.75 50.75 32.81845] CT
0.149 GC
/Helvetica 13 F
GS
[1 0 0 1 0 0] CT
-15 5.5 moveto 
1 -1 scale
(25) t 
GR
GR
GS
[0 -0.75 0.75 0 36.5 151.87487] CT
0.149 GC
/Helvetica 15 F
GS
[1 0 0 1 0 0] CT
-35.5 -4 moveto 
1 -1 scale
(Force [pN]) t 
GR
GR
GS
[0.75 0 0 0.75 0 0] CT
0 0.447 0.741 RC
1 LJ
0.667 LW
N
72.957 259.762 M
73.558 312.589 L
74.886 230.012 L
76.215 252.59 L
77.544 279.544 L
78.873 320.776 L
80.201 283.724 L
81.53 274.402 L
82.859 343.344 L
84.188 260.069 L
85.516 309.078 L
86.845 274.404 L
88.174 252.643 L
89.503 314.444 L
90.831 284.009 L
92.16 251.446 L
93.489 358.797 L
94.818 215.502 L
96.146 145.833 L
97.475 220.771 L
98.804 283.531 L
100.133 247.253 L
101.461 321.474 L
102.79 173.019 L
104.119 218.682 L
105.448 226.926 L
106.776 308.809 L
108.105 249.181 L
109.434 292.762 L
110.763 277.716 L
112.092 287.531 L
113.42 310.566 L
114.749 304.331 L
116.078 267.561 L
117.407 341.184 L
118.735 225.248 L
120.064 261.529 L
121.393 221.064 L
122.722 245.02 L
124.05 233.524 L
125.379 333.886 L
126.708 310.512 L
128.037 278.275 L
129.365 249.865 L
130.694 196.418 L
132.023 268.607 L
133.352 188.707 L
134.68 229.819 L
136.009 194.654 L
137.338 246.456 L
S
GR
GS
[0.75 0 0 0.75 0 0] CT
0 0.447 0.741 RC
1 LJ
0.667 LW
N
136.009 194.654 M
137.338 246.456 L
138.667 284.623 L
139.995 325.754 L
141.324 244.455 L
142.653 212.224 L
143.982 268.474 L
145.31 281.754 L
146.639 270.37 L
147.968 310.666 L
149.297 278.385 L
150.625 261.927 L
151.954 249.754 L
153.283 255.841 L
154.612 221.148 L
155.941 245.507 L
157.269 160.6 L
158.598 237.029 L
159.927 164.003 L
161.256 289.395 L
162.584 227.422 L
163.913 266.408 L
165.242 222.632 L
166.571 222.361 L
167.899 362.271 L
169.228 318.94 L
170.557 324.563 L
171.886 229.882 L
173.214 177.173 L
174.543 267.18 L
175.872 208.178 L
177.201 220.567 L
178.529 301.617 L
179.858 227.379 L
181.187 287.922 L
182.516 174.13 L
183.844 249.475 L
185.173 164.568 L
186.502 266.585 L
187.831 215.246 L
189.159 247.952 L
190.488 344.962 L
191.817 289.378 L
193.146 209.11 L
194.474 240.333 L
195.803 293.891 L
197.132 269.167 L
198.461 223.85 L
199.789 286.819 L
201.118 186.298 L
202.447 268.959 L
203.776 148.384 L
S
GR
GS
[0.75 0 0 0.75 0 0] CT
0 0.447 0.741 RC
1 LJ
0.667 LW
N
202.447 268.959 M
203.776 148.384 L
205.105 293.093 L
206.433 227.908 L
207.762 312.168 L
209.091 271.422 L
210.42 263.141 L
211.748 212.338 L
213.077 183.779 L
214.406 216.621 L
215.735 249.966 L
217.063 190.44 L
218.392 190.985 L
219.721 221.657 L
221.05 200.148 L
222.378 207.472 L
223.707 277.564 L
225.036 188.796 L
226.365 257.134 L
227.693 252.731 L
229.022 213.719 L
230.351 239.197 L
231.68 228.716 L
233.008 192.8 L
234.337 170.385 L
235.666 231.694 L
236.995 206.539 L
238.323 232.41 L
239.652 208.148 L
240.981 197.227 L
242.31 248.656 L
243.638 202.234 L
244.967 185.501 L
246.296 209.033 L
247.625 125.686 L
248.953 241.088 L
250.282 246.543 L
251.611 296.959 L
252.94 160.532 L
254.269 162.987 L
255.597 209.069 L
256.926 156.754 L
258.255 192.454 L
259.584 185.589 L
260.912 193.414 L
262.241 176.705 L
263.57 192.975 L
264.899 56.624 L
266.227 251.582 L
267.556 284.285 L
268.885 248.007 L
270.214 247.309 L
S
GR
GS
[0.75 0 0 0.75 0 0] CT
0 0.447 0.741 RC
1 LJ
0.667 LW
N
268.885 248.007 M
270.214 247.309 L
271.542 213.12 L
272.871 198.726 L
274.2 201.449 L
275.529 161.28 L
276.857 167.66 L
278.186 147.98 L
279.515 96.218 L
280.844 124.145 L
282.172 249.778 L
283.501 302.85 L
284.83 140.439 L
286.159 276.197 L
287.487 182.616 L
288.816 185.536 L
290.145 74.609 L
291.474 188.677 L
292.802 210.994 L
294.131 172.16 L
295.46 169.246 L
296.789 176.36 L
298.118 211.484 L
299.446 242.331 L
300.775 165.203 L
302.104 248.047 L
303.433 232.365 L
304.761 113.806 L
306.09 198.42 L
307.419 183.911 L
308.748 130.93 L
310.076 189.889 L
311.405 124.306 L
312.734 193.768 L
314.063 124.034 L
315.391 141.881 L
316.72 184.622 L
318.049 215.019 L
319.378 223.007 L
320.706 183.001 L
322.035 190.286 L
323.364 188.453 L
324.693 119.755 L
326.021 183.207 L
327.35 111.694 L
328.679 194.956 L
330.008 118.09 L
331.336 191.823 L
332.665 157.339 L
333.994 115.902 L
335.323 185.808 L
336.651 185.591 L
S
GR
GS
[0.75 0 0 0.75 0 0] CT
0 0.447 0.741 RC
1 LJ
0.667 LW
N
335.323 185.808 M
336.651 185.591 L
337.98 61.1 L
339.309 110.832 L
340.638 181.644 L
341.966 125.172 L
343.295 174.858 L
344.624 120.229 L
345.953 84.064 L
347.282 234.229 L
348.61 101.081 L
349.939 79.053 L
351.268 149.292 L
352.597 61.962 L
353.925 139.966 L
355.254 207.247 L
356.583 253.522 L
357.912 158.977 L
359.24 106.473 L
360.569 124.633 L
361.898 118.821 L
363.227 166.924 L
364.555 128.251 L
365.884 216.974 L
367.213 172.033 L
368.542 173.868 L
369.87 104.944 L
371.199 127.786 L
372.528 184.697 L
373.857 124.007 L
375.185 156.923 L
376.514 153.131 L
377.843 74.64 L
379.172 111.435 L
380.5 95.867 L
381.829 68.706 L
383.158 100.871 L
384.487 79.447 L
385.816 71.856 L
387.144 47.284 L
388.473 79.989 L
389.792 30.966 L
S
GR
GS
[0.75 0 0 0.75 0 0] CT
0 0.447 0.741 RC
1 LJ
0.667 LW
N
389.808 30.966 M
391.13 101.753 L
392.459 103.514 L
393.505 30.966 L
S
GR
GS
[0.75 0 0 0.75 0 0] CT
0 0.447 0.741 RC
1 LJ
0.667 LW
N
394.026 30.966 M
395.117 120.8 L
396.446 94.329 L
397.774 47.399 L
399.103 86.441 L
400.249 30.966 L
S
GR
GS
[0.75 0 0 0.75 0 0] CT
0 0.447 0.741 RC
1 LJ
0.667 LW
N
401.149 30.966 M
401.761 38.487 L
403.089 75.061 L
404.418 126.495 L
405.747 56.044 L
407.076 152.664 L
408.404 68.331 L
409.733 37.268 L
411.062 65.147 L
412.258 30.966 L
S
GR
GS
[0.75 0 0 0.75 0 0] CT
0 0.447 0.741 RC
1 LJ
0.667 LW
N
415.426 30.966 M
416.377 53.84 L
417.706 33.7 L
419.034 41.774 L
420.363 125.547 L
421.692 77.929 L
422.415 30.966 L
S
GR
GS
[0.75 0 0 0.75 0 0] CT
0 0.447 0.741 RC
1 LJ
0.667 LW
N
423.858 30.966 M
424.349 54.057 L
425.245 30.966 L
S
GR
GS
[0.75 0 0 0.75 0 0] CT
0 0.447 0.741 RC
1 LJ
0.667 LW
N
425.868 30.966 M
427.007 97.83 L
428.336 42.521 L
428.923 30.966 L
S
GR
GS
[0.75 0 0 0.75 0 0] CT
0 0.447 0.741 RC
1 LJ
0.667 LW
N
429.869 30.966 M
430.993 111.414 L
432.172 30.966 L
S
GR
GS
[0.75 0 0 0.75 0 0] CT
0 0.447 0.741 RC
1 LJ
0.667 LW
N
432.904 30.966 M
433.651 44.096 L
434.98 77.817 L
436.275 30.966 L
S
GR
GS
[0.75 0 0 0.75 0 0] CT
0 0.447 0.741 RC
1 LJ
0.667 LW
N
436.325 30.966 M
437.637 121.922 L
438.966 131.881 L
440.294 82.322 L
441.623 68.778 L
442.952 75.664 L
444.281 100.379 L
445.181 30.966 L
S
GR
GS
[0.75 0 0 0.75 0 0] CT
0 0.447 0.741 RC
1 LJ
0.667 LW
N
446.088 30.966 M
446.938 89.7 L
447.839 30.966 L
S
GR
GS
[0.75 0 0 0.75 0 0] CT
0 0.447 0.741 RC
1 LJ
0.667 LW
N
454.062 30.966 M
454.911 64.244 L
455.486 30.966 L
S
GR
GS
[0.75 0 0 0.75 0 0] CT
0 0.447 0.741 RC
1 LJ
0.667 LW
N
460.923 30.966 M
461.555 58.334 L
461.947 30.966 L
S
GR
GS
[0.75 0 0 0.75 0 0] CT
0 0.447 0.741 RC
1 LJ
0.667 LW
N
469.245 30.966 M
469.527 76.991 L
470.169 30.966 L
S
GR
GS
[0.75 0 0 0.75 55.16817 207.16878] CT
0.851 0.325 0.098 RC
N
1.333 0 M
1.333 0.736 0.736 1.333 0 1.333 C
-0.736 1.333 -1.333 0.736 -1.333 0 C
-1.333 -0.736 -0.736 -1.333 0 -1.333 C
0.736 -1.333 1.333 -0.736 1.333 0 C
cp
f
GR
GS
[0.75 0 0 0.75 56.16473 207.16878] CT
0.851 0.325 0.098 RC
N
1.333 0 M
1.333 0.736 0.736 1.333 0 1.333 C
-0.736 1.333 -1.333 0.736 -1.333 0 C
-1.333 -0.736 -0.736 -1.333 0 -1.333 C
0.736 -1.333 1.333 -0.736 1.333 0 C
cp
f
GR
GS
[0.75 0 0 0.75 57.1613 207.16878] CT
0.851 0.325 0.098 RC
N
1.333 0 M
1.333 0.736 0.736 1.333 0 1.333 C
-0.736 1.333 -1.333 0.736 -1.333 0 C
-1.333 -0.736 -0.736 -1.333 0 -1.333 C
0.736 -1.333 1.333 -0.736 1.333 0 C
cp
f
GR
GS
[0.75 0 0 0.75 58.15787 207.16878] CT
0.851 0.325 0.098 RC
N
1.333 0 M
1.333 0.736 0.736 1.333 0 1.333 C
-0.736 1.333 -1.333 0.736 -1.333 0 C
-1.333 -0.736 -0.736 -1.333 0 -1.333 C
0.736 -1.333 1.333 -0.736 1.333 0 C
cp
f
GR
GS
[0.75 0 0 0.75 59.15445 207.16878] CT
0.851 0.325 0.098 RC
N
1.333 0 M
1.333 0.736 0.736 1.333 0 1.333 C
-0.736 1.333 -1.333 0.736 -1.333 0 C
-1.333 -0.736 -0.736 -1.333 0 -1.333 C
0.736 -1.333 1.333 -0.736 1.333 0 C
cp
f
GR
GS
[0.75 0 0 0.75 60.151 207.16878] CT
0.851 0.325 0.098 RC
N
1.333 0 M
1.333 0.736 0.736 1.333 0 1.333 C
-0.736 1.333 -1.333 0.736 -1.333 0 C
-1.333 -0.736 -0.736 -1.333 0 -1.333 C
0.736 -1.333 1.333 -0.736 1.333 0 C
cp
f
GR
GS
[0.75 0 0 0.75 61.14758 207.16878] CT
0.851 0.325 0.098 RC
N
1.333 0 M
1.333 0.736 0.736 1.333 0 1.333 C
-0.736 1.333 -1.333 0.736 -1.333 0 C
-1.333 -0.736 -0.736 -1.333 0 -1.333 C
0.736 -1.333 1.333 -0.736 1.333 0 C
cp
f
GR
GS
[0.75 0 0 0.75 62.14415 207.16878] CT
0.851 0.325 0.098 RC
N
1.333 0 M
1.333 0.736 0.736 1.333 0 1.333 C
-0.736 1.333 -1.333 0.736 -1.333 0 C
-1.333 -0.736 -0.736 -1.333 0 -1.333 C
0.736 -1.333 1.333 -0.736 1.333 0 C
cp
f
GR
GS
[0.75 0 0 0.75 63.14071 207.16878] CT
0.851 0.325 0.098 RC
N
1.333 0 M
1.333 0.736 0.736 1.333 0 1.333 C
-0.736 1.333 -1.333 0.736 -1.333 0 C
-1.333 -0.736 -0.736 -1.333 0 -1.333 C
0.736 -1.333 1.333 -0.736 1.333 0 C
cp
f
GR
GS
[0.75 0 0 0.75 64.13728 207.16878] CT
0.851 0.325 0.098 RC
N
1.333 0 M
1.333 0.736 0.736 1.333 0 1.333 C
-0.736 1.333 -1.333 0.736 -1.333 0 C
-1.333 -0.736 -0.736 -1.333 0 -1.333 C
0.736 -1.333 1.333 -0.736 1.333 0 C
cp
f
GR
GS
[0.75 0 0 0.75 65.13385 207.16878] CT
0.851 0.325 0.098 RC
N
1.333 0 M
1.333 0.736 0.736 1.333 0 1.333 C
-0.736 1.333 -1.333 0.736 -1.333 0 C
-1.333 -0.736 -0.736 -1.333 0 -1.333 C
0.736 -1.333 1.333 -0.736 1.333 0 C
cp
f
GR
GS
[0.75 0 0 0.75 66.13042 207.16878] CT
0.851 0.325 0.098 RC
N
1.333 0 M
1.333 0.736 0.736 1.333 0 1.333 C
-0.736 1.333 -1.333 0.736 -1.333 0 C
-1.333 -0.736 -0.736 -1.333 0 -1.333 C
0.736 -1.333 1.333 -0.736 1.333 0 C
cp
f
GR
GS
[0.75 0 0 0.75 67.12698 207.16878] CT
0.851 0.325 0.098 RC
N
1.333 0 M
1.333 0.736 0.736 1.333 0 1.333 C
-0.736 1.333 -1.333 0.736 -1.333 0 C
-1.333 -0.736 -0.736 -1.333 0 -1.333 C
0.736 -1.333 1.333 -0.736 1.333 0 C
cp
f
GR
GS
[0.75 0 0 0.75 68.12355 207.16878] CT
0.851 0.325 0.098 RC
N
1.333 0 M
1.333 0.736 0.736 1.333 0 1.333 C
-0.736 1.333 -1.333 0.736 -1.333 0 C
-1.333 -0.736 -0.736 -1.333 0 -1.333 C
0.736 -1.333 1.333 -0.736 1.333 0 C
cp
f
GR
GS
[0.75 0 0 0.75 69.12012 207.16878] CT
0.851 0.325 0.098 RC
N
1.333 0 M
1.333 0.736 0.736 1.333 0 1.333 C
-0.736 1.333 -1.333 0.736 -1.333 0 C
-1.333 -0.736 -0.736 -1.333 0 -1.333 C
0.736 -1.333 1.333 -0.736 1.333 0 C
cp
f
GR
GS
[0.75 0 0 0.75 70.11668 207.16878] CT
0.851 0.325 0.098 RC
N
1.333 0 M
1.333 0.736 0.736 1.333 0 1.333 C
-0.736 1.333 -1.333 0.736 -1.333 0 C
-1.333 -0.736 -0.736 -1.333 0 -1.333 C
0.736 -1.333 1.333 -0.736 1.333 0 C
cp
f
GR
GS
[0.75 0 0 0.75 71.11325 207.16878] CT
0.851 0.325 0.098 RC
N
1.333 0 M
1.333 0.736 0.736 1.333 0 1.333 C
-0.736 1.333 -1.333 0.736 -1.333 0 C
-1.333 -0.736 -0.736 -1.333 0 -1.333 C
0.736 -1.333 1.333 -0.736 1.333 0 C
cp
f
GR
GS
[0.75 0 0 0.75 72.10982 207.16878] CT
0.851 0.325 0.098 RC
N
1.333 0 M
1.333 0.736 0.736 1.333 0 1.333 C
-0.736 1.333 -1.333 0.736 -1.333 0 C
-1.333 -0.736 -0.736 -1.333 0 -1.333 C
0.736 -1.333 1.333 -0.736 1.333 0 C
cp
f
GR
GS
[0.75 0 0 0.75 73.10639 207.16878] CT
0.851 0.325 0.098 RC
N
1.333 0 M
1.333 0.736 0.736 1.333 0 1.333 C
-0.736 1.333 -1.333 0.736 -1.333 0 C
-1.333 -0.736 -0.736 -1.333 0 -1.333 C
0.736 -1.333 1.333 -0.736 1.333 0 C
cp
f
GR
GS
[0.75 0 0 0.75 74.10295 207.16878] CT
0.851 0.325 0.098 RC
N
1.333 0 M
1.333 0.736 0.736 1.333 0 1.333 C
-0.736 1.333 -1.333 0.736 -1.333 0 C
-1.333 -0.736 -0.736 -1.333 0 -1.333 C
0.736 -1.333 1.333 -0.736 1.333 0 C
cp
f
GR
GS
[0.75 0 0 0.75 75.09952 207.16878] CT
0.851 0.325 0.098 RC
N
1.333 0 M
1.333 0.736 0.736 1.333 0 1.333 C
-0.736 1.333 -1.333 0.736 -1.333 0 C
-1.333 -0.736 -0.736 -1.333 0 -1.333 C
0.736 -1.333 1.333 -0.736 1.333 0 C
cp
f
GR
GS
[0.75 0 0 0.75 76.0961 207.16878] CT
0.851 0.325 0.098 RC
N
1.333 0 M
1.333 0.736 0.736 1.333 0 1.333 C
-0.736 1.333 -1.333 0.736 -1.333 0 C
-1.333 -0.736 -0.736 -1.333 0 -1.333 C
0.736 -1.333 1.333 -0.736 1.333 0 C
cp
f
GR
GS
[0.75 0 0 0.75 77.09267 207.16878] CT
0.851 0.325 0.098 RC
N
1.333 0 M
1.333 0.736 0.736 1.333 0 1.333 C
-0.736 1.333 -1.333 0.736 -1.333 0 C
-1.333 -0.736 -0.736 -1.333 0 -1.333 C
0.736 -1.333 1.333 -0.736 1.333 0 C
cp
f
GR
GS
[0.75 0 0 0.75 78.08923 207.16878] CT
0.851 0.325 0.098 RC
N
1.333 0 M
1.333 0.736 0.736 1.333 0 1.333 C
-0.736 1.333 -1.333 0.736 -1.333 0 C
-1.333 -0.736 -0.736 -1.333 0 -1.333 C
0.736 -1.333 1.333 -0.736 1.333 0 C
cp
f
GR
GS
[0.75 0 0 0.75 79.0858 207.16878] CT
0.851 0.325 0.098 RC
N
1.333 0 M
1.333 0.736 0.736 1.333 0 1.333 C
-0.736 1.333 -1.333 0.736 -1.333 0 C
-1.333 -0.736 -0.736 -1.333 0 -1.333 C
0.736 -1.333 1.333 -0.736 1.333 0 C
cp
f
GR
GS
[0.75 0 0 0.75 80.08237 207.16878] CT
0.851 0.325 0.098 RC
N
1.333 0 M
1.333 0.736 0.736 1.333 0 1.333 C
-0.736 1.333 -1.333 0.736 -1.333 0 C
-1.333 -0.736 -0.736 -1.333 0 -1.333 C
0.736 -1.333 1.333 -0.736 1.333 0 C
cp
f
GR
GS
[0.75 0 0 0.75 81.07893 207.16878] CT
0.851 0.325 0.098 RC
N
1.333 0 M
1.333 0.736 0.736 1.333 0 1.333 C
-0.736 1.333 -1.333 0.736 -1.333 0 C
-1.333 -0.736 -0.736 -1.333 0 -1.333 C
0.736 -1.333 1.333 -0.736 1.333 0 C
cp
f
GR
GS
[0.75 0 0 0.75 82.0755 207.16878] CT
0.851 0.325 0.098 RC
N
1.333 0 M
1.333 0.736 0.736 1.333 0 1.333 C
-0.736 1.333 -1.333 0.736 -1.333 0 C
-1.333 -0.736 -0.736 -1.333 0 -1.333 C
0.736 -1.333 1.333 -0.736 1.333 0 C
cp
f
GR
GS
[0.75 0 0 0.75 83.07207 207.16878] CT
0.851 0.325 0.098 RC
N
1.333 0 M
1.333 0.736 0.736 1.333 0 1.333 C
-0.736 1.333 -1.333 0.736 -1.333 0 C
-1.333 -0.736 -0.736 -1.333 0 -1.333 C
0.736 -1.333 1.333 -0.736 1.333 0 C
cp
f
GR
GS
[0.75 0 0 0.75 84.06863 207.16878] CT
0.851 0.325 0.098 RC
N
1.333 0 M
1.333 0.736 0.736 1.333 0 1.333 C
-0.736 1.333 -1.333 0.736 -1.333 0 C
-1.333 -0.736 -0.736 -1.333 0 -1.333 C
0.736 -1.333 1.333 -0.736 1.333 0 C
cp
f
GR
GS
[0.75 0 0 0.75 85.06521 207.16878] CT
0.851 0.325 0.098 RC
N
1.333 0 M
1.333 0.736 0.736 1.333 0 1.333 C
-0.736 1.333 -1.333 0.736 -1.333 0 C
-1.333 -0.736 -0.736 -1.333 0 -1.333 C
0.736 -1.333 1.333 -0.736 1.333 0 C
cp
f
GR
GS
[0.75 0 0 0.75 86.06177 207.16878] CT
0.851 0.325 0.098 RC
N
1.333 0 M
1.333 0.736 0.736 1.333 0 1.333 C
-0.736 1.333 -1.333 0.736 -1.333 0 C
-1.333 -0.736 -0.736 -1.333 0 -1.333 C
0.736 -1.333 1.333 -0.736 1.333 0 C
cp
f
GR
GS
[0.75 0 0 0.75 87.05834 207.16878] CT
0.851 0.325 0.098 RC
N
1.333 0 M
1.333 0.736 0.736 1.333 0 1.333 C
-0.736 1.333 -1.333 0.736 -1.333 0 C
-1.333 -0.736 -0.736 -1.333 0 -1.333 C
0.736 -1.333 1.333 -0.736 1.333 0 C
cp
f
GR
GS
[0.75 0 0 0.75 88.05492 207.16878] CT
0.851 0.325 0.098 RC
N
1.333 0 M
1.333 0.736 0.736 1.333 0 1.333 C
-0.736 1.333 -1.333 0.736 -1.333 0 C
-1.333 -0.736 -0.736 -1.333 0 -1.333 C
0.736 -1.333 1.333 -0.736 1.333 0 C
cp
f
GR
GS
[0.75 0 0 0.75 89.05147 207.16878] CT
0.851 0.325 0.098 RC
N
1.333 0 M
1.333 0.736 0.736 1.333 0 1.333 C
-0.736 1.333 -1.333 0.736 -1.333 0 C
-1.333 -0.736 -0.736 -1.333 0 -1.333 C
0.736 -1.333 1.333 -0.736 1.333 0 C
cp
f
GR
GS
[0.75 0 0 0.75 90.04804 207.16878] CT
0.851 0.325 0.098 RC
N
1.333 0 M
1.333 0.736 0.736 1.333 0 1.333 C
-0.736 1.333 -1.333 0.736 -1.333 0 C
-1.333 -0.736 -0.736 -1.333 0 -1.333 C
0.736 -1.333 1.333 -0.736 1.333 0 C
cp
f
GR
GS
[0.75 0 0 0.75 91.04462 207.16878] CT
0.851 0.325 0.098 RC
N
1.333 0 M
1.333 0.736 0.736 1.333 0 1.333 C
-0.736 1.333 -1.333 0.736 -1.333 0 C
-1.333 -0.736 -0.736 -1.333 0 -1.333 C
0.736 -1.333 1.333 -0.736 1.333 0 C
cp
f
GR
GS
[0.75 0 0 0.75 92.04118 207.16878] CT
0.851 0.325 0.098 RC
N
1.333 0 M
1.333 0.736 0.736 1.333 0 1.333 C
-0.736 1.333 -1.333 0.736 -1.333 0 C
-1.333 -0.736 -0.736 -1.333 0 -1.333 C
0.736 -1.333 1.333 -0.736 1.333 0 C
cp
f
GR
GS
[0.75 0 0 0.75 93.03776 207.16878] CT
0.851 0.325 0.098 RC
N
1.333 0 M
1.333 0.736 0.736 1.333 0 1.333 C
-0.736 1.333 -1.333 0.736 -1.333 0 C
-1.333 -0.736 -0.736 -1.333 0 -1.333 C
0.736 -1.333 1.333 -0.736 1.333 0 C
cp
f
GR
GS
[0.75 0 0 0.75 94.03432 207.16878] CT
0.851 0.325 0.098 RC
N
1.333 0 M
1.333 0.736 0.736 1.333 0 1.333 C
-0.736 1.333 -1.333 0.736 -1.333 0 C
-1.333 -0.736 -0.736 -1.333 0 -1.333 C
0.736 -1.333 1.333 -0.736 1.333 0 C
cp
f
GR
GS
[0.75 0 0 0.75 95.03088 207.16878] CT
0.851 0.325 0.098 RC
N
1.333 0 M
1.333 0.736 0.736 1.333 0 1.333 C
-0.736 1.333 -1.333 0.736 -1.333 0 C
-1.333 -0.736 -0.736 -1.333 0 -1.333 C
0.736 -1.333 1.333 -0.736 1.333 0 C
cp
f
GR
GS
[0.75 0 0 0.75 96.02747 186.00528] CT
0.851 0.325 0.098 RC
N
1.333 0 M
1.333 0.736 0.736 1.333 0 1.333 C
-0.736 1.333 -1.333 0.736 -1.333 0 C
-1.333 -0.736 -0.736 -1.333 0 -1.333 C
0.736 -1.333 1.333 -0.736 1.333 0 C
cp
f
GR
GS
[0.75 0 0 0.75 97.02402 186.00528] CT
0.851 0.325 0.098 RC
N
1.333 0 M
1.333 0.736 0.736 1.333 0 1.333 C
-0.736 1.333 -1.333 0.736 -1.333 0 C
-1.333 -0.736 -0.736 -1.333 0 -1.333 C
0.736 -1.333 1.333 -0.736 1.333 0 C
cp
f
GR
GS
[0.75 0 0 0.75 98.02058 186.00528] CT
0.851 0.325 0.098 RC
N
1.333 0 M
1.333 0.736 0.736 1.333 0 1.333 C
-0.736 1.333 -1.333 0.736 -1.333 0 C
-1.333 -0.736 -0.736 -1.333 0 -1.333 C
0.736 -1.333 1.333 -0.736 1.333 0 C
cp
f
GR
GS
[0.75 0 0 0.75 99.01717 186.00528] CT
0.851 0.325 0.098 RC
N
1.333 0 M
1.333 0.736 0.736 1.333 0 1.333 C
-0.736 1.333 -1.333 0.736 -1.333 0 C
-1.333 -0.736 -0.736 -1.333 0 -1.333 C
0.736 -1.333 1.333 -0.736 1.333 0 C
cp
f
GR
GS
[0.75 0 0 0.75 100.01372 186.00528] CT
0.851 0.325 0.098 RC
N
1.333 0 M
1.333 0.736 0.736 1.333 0 1.333 C
-0.736 1.333 -1.333 0.736 -1.333 0 C
-1.333 -0.736 -0.736 -1.333 0 -1.333 C
0.736 -1.333 1.333 -0.736 1.333 0 C
cp
f
GR
GS
[0.75 0 0 0.75 101.01028 186.00528] CT
0.851 0.325 0.098 RC
N
1.333 0 M
1.333 0.736 0.736 1.333 0 1.333 C
-0.736 1.333 -1.333 0.736 -1.333 0 C
-1.333 -0.736 -0.736 -1.333 0 -1.333 C
0.736 -1.333 1.333 -0.736 1.333 0 C
cp
f
GR
GS
[0.75 0 0 0.75 102.00687 186.00528] CT
0.851 0.325 0.098 RC
N
1.333 0 M
1.333 0.736 0.736 1.333 0 1.333 C
-0.736 1.333 -1.333 0.736 -1.333 0 C
-1.333 -0.736 -0.736 -1.333 0 -1.333 C
0.736 -1.333 1.333 -0.736 1.333 0 C
cp
f
GR
GS
[0.75 0 0 0.75 103.00343 186.00528] CT
0.851 0.325 0.098 RC
N
1.333 0 M
1.333 0.736 0.736 1.333 0 1.333 C
-0.736 1.333 -1.333 0.736 -1.333 0 C
-1.333 -0.736 -0.736 -1.333 0 -1.333 C
0.736 -1.333 1.333 -0.736 1.333 0 C
cp
f
GR
GS
[0.75 0 0 0.75 103.99998 186.00528] CT
0.851 0.325 0.098 RC
N
1.333 0 M
1.333 0.736 0.736 1.333 0 1.333 C
-0.736 1.333 -1.333 0.736 -1.333 0 C
-1.333 -0.736 -0.736 -1.333 0 -1.333 C
0.736 -1.333 1.333 -0.736 1.333 0 C
cp
f
GR
GS
[0.75 0 0 0.75 104.99657 186.00528] CT
0.851 0.325 0.098 RC
N
1.333 0 M
1.333 0.736 0.736 1.333 0 1.333 C
-0.736 1.333 -1.333 0.736 -1.333 0 C
-1.333 -0.736 -0.736 -1.333 0 -1.333 C
0.736 -1.333 1.333 -0.736 1.333 0 C
cp
f
GR
GS
[0.75 0 0 0.75 105.99313 186.00528] CT
0.851 0.325 0.098 RC
N
1.333 0 M
1.333 0.736 0.736 1.333 0 1.333 C
-0.736 1.333 -1.333 0.736 -1.333 0 C
-1.333 -0.736 -0.736 -1.333 0 -1.333 C
0.736 -1.333 1.333 -0.736 1.333 0 C
cp
f
GR
GS
[0.75 0 0 0.75 106.9897 186.00528] CT
0.851 0.325 0.098 RC
N
1.333 0 M
1.333 0.736 0.736 1.333 0 1.333 C
-0.736 1.333 -1.333 0.736 -1.333 0 C
-1.333 -0.736 -0.736 -1.333 0 -1.333 C
0.736 -1.333 1.333 -0.736 1.333 0 C
cp
f
GR
GS
[0.75 0 0 0.75 107.98627 186.00528] CT
0.851 0.325 0.098 RC
N
1.333 0 M
1.333 0.736 0.736 1.333 0 1.333 C
-0.736 1.333 -1.333 0.736 -1.333 0 C
-1.333 -0.736 -0.736 -1.333 0 -1.333 C
0.736 -1.333 1.333 -0.736 1.333 0 C
cp
f
GR
GS
[0.75 0 0 0.75 108.98283 186.00528] CT
0.851 0.325 0.098 RC
N
1.333 0 M
1.333 0.736 0.736 1.333 0 1.333 C
-0.736 1.333 -1.333 0.736 -1.333 0 C
-1.333 -0.736 -0.736 -1.333 0 -1.333 C
0.736 -1.333 1.333 -0.736 1.333 0 C
cp
f
GR
GS
[0.75 0 0 0.75 109.9794 186.00528] CT
0.851 0.325 0.098 RC
N
1.333 0 M
1.333 0.736 0.736 1.333 0 1.333 C
-0.736 1.333 -1.333 0.736 -1.333 0 C
-1.333 -0.736 -0.736 -1.333 0 -1.333 C
0.736 -1.333 1.333 -0.736 1.333 0 C
cp
f
GR
GS
[0.75 0 0 0.75 110.97597 186.00528] CT
0.851 0.325 0.098 RC
N
1.333 0 M
1.333 0.736 0.736 1.333 0 1.333 C
-0.736 1.333 -1.333 0.736 -1.333 0 C
-1.333 -0.736 -0.736 -1.333 0 -1.333 C
0.736 -1.333 1.333 -0.736 1.333 0 C
cp
f
GR
GS
[0.75 0 0 0.75 111.97253 186.00528] CT
0.851 0.325 0.098 RC
N
1.333 0 M
1.333 0.736 0.736 1.333 0 1.333 C
-0.736 1.333 -1.333 0.736 -1.333 0 C
-1.333 -0.736 -0.736 -1.333 0 -1.333 C
0.736 -1.333 1.333 -0.736 1.333 0 C
cp
f
GR
GS
[0.75 0 0 0.75 112.96912 186.00528] CT
0.851 0.325 0.098 RC
N
1.333 0 M
1.333 0.736 0.736 1.333 0 1.333 C
-0.736 1.333 -1.333 0.736 -1.333 0 C
-1.333 -0.736 -0.736 -1.333 0 -1.333 C
0.736 -1.333 1.333 -0.736 1.333 0 C
cp
f
GR
GS
[0.75 0 0 0.75 113.96567 186.00528] CT
0.851 0.325 0.098 RC
N
1.333 0 M
1.333 0.736 0.736 1.333 0 1.333 C
-0.736 1.333 -1.333 0.736 -1.333 0 C
-1.333 -0.736 -0.736 -1.333 0 -1.333 C
0.736 -1.333 1.333 -0.736 1.333 0 C
cp
f
GR
GS
[0.75 0 0 0.75 114.96223 186.00528] CT
0.851 0.325 0.098 RC
N
1.333 0 M
1.333 0.736 0.736 1.333 0 1.333 C
-0.736 1.333 -1.333 0.736 -1.333 0 C
-1.333 -0.736 -0.736 -1.333 0 -1.333 C
0.736 -1.333 1.333 -0.736 1.333 0 C
cp
f
GR
GS
[0.75 0 0 0.75 115.95882 186.00528] CT
0.851 0.325 0.098 RC
N
1.333 0 M
1.333 0.736 0.736 1.333 0 1.333 C
-0.736 1.333 -1.333 0.736 -1.333 0 C
-1.333 -0.736 -0.736 -1.333 0 -1.333 C
0.736 -1.333 1.333 -0.736 1.333 0 C
cp
f
GR
GS
[0.75 0 0 0.75 116.95538 186.00528] CT
0.851 0.325 0.098 RC
N
1.333 0 M
1.333 0.736 0.736 1.333 0 1.333 C
-0.736 1.333 -1.333 0.736 -1.333 0 C
-1.333 -0.736 -0.736 -1.333 0 -1.333 C
0.736 -1.333 1.333 -0.736 1.333 0 C
cp
f
GR
GS
[0.75 0 0 0.75 117.95193 186.00528] CT
0.851 0.325 0.098 RC
N
1.333 0 M
1.333 0.736 0.736 1.333 0 1.333 C
-0.736 1.333 -1.333 0.736 -1.333 0 C
-1.333 -0.736 -0.736 -1.333 0 -1.333 C
0.736 -1.333 1.333 -0.736 1.333 0 C
cp
f
GR
GS
[0.75 0 0 0.75 118.94852 186.00528] CT
0.851 0.325 0.098 RC
N
1.333 0 M
1.333 0.736 0.736 1.333 0 1.333 C
-0.736 1.333 -1.333 0.736 -1.333 0 C
-1.333 -0.736 -0.736 -1.333 0 -1.333 C
0.736 -1.333 1.333 -0.736 1.333 0 C
cp
f
GR
GS
[0.75 0 0 0.75 119.94508 186.00528] CT
0.851 0.325 0.098 RC
N
1.333 0 M
1.333 0.736 0.736 1.333 0 1.333 C
-0.736 1.333 -1.333 0.736 -1.333 0 C
-1.333 -0.736 -0.736 -1.333 0 -1.333 C
0.736 -1.333 1.333 -0.736 1.333 0 C
cp
f
GR
GS
[0.75 0 0 0.75 120.94165 186.00528] CT
0.851 0.325 0.098 RC
N
1.333 0 M
1.333 0.736 0.736 1.333 0 1.333 C
-0.736 1.333 -1.333 0.736 -1.333 0 C
-1.333 -0.736 -0.736 -1.333 0 -1.333 C
0.736 -1.333 1.333 -0.736 1.333 0 C
cp
f
GR
GS
[0.75 0 0 0.75 121.93822 186.00528] CT
0.851 0.325 0.098 RC
N
1.333 0 M
1.333 0.736 0.736 1.333 0 1.333 C
-0.736 1.333 -1.333 0.736 -1.333 0 C
-1.333 -0.736 -0.736 -1.333 0 -1.333 C
0.736 -1.333 1.333 -0.736 1.333 0 C
cp
f
GR
GS
[0.75 0 0 0.75 122.93478 186.00528] CT
0.851 0.325 0.098 RC
N
1.333 0 M
1.333 0.736 0.736 1.333 0 1.333 C
-0.736 1.333 -1.333 0.736 -1.333 0 C
-1.333 -0.736 -0.736 -1.333 0 -1.333 C
0.736 -1.333 1.333 -0.736 1.333 0 C
cp
f
GR
GS
[0.75 0 0 0.75 123.93135 186.00528] CT
0.851 0.325 0.098 RC
N
1.333 0 M
1.333 0.736 0.736 1.333 0 1.333 C
-0.736 1.333 -1.333 0.736 -1.333 0 C
-1.333 -0.736 -0.736 -1.333 0 -1.333 C
0.736 -1.333 1.333 -0.736 1.333 0 C
cp
f
GR
GS
[0.75 0 0 0.75 124.92792 186.00528] CT
0.851 0.325 0.098 RC
N
1.333 0 M
1.333 0.736 0.736 1.333 0 1.333 C
-0.736 1.333 -1.333 0.736 -1.333 0 C
-1.333 -0.736 -0.736 -1.333 0 -1.333 C
0.736 -1.333 1.333 -0.736 1.333 0 C
cp
f
GR
GS
[0.75 0 0 0.75 125.92448 186.00528] CT
0.851 0.325 0.098 RC
N
1.333 0 M
1.333 0.736 0.736 1.333 0 1.333 C
-0.736 1.333 -1.333 0.736 -1.333 0 C
-1.333 -0.736 -0.736 -1.333 0 -1.333 C
0.736 -1.333 1.333 -0.736 1.333 0 C
cp
f
GR
GS
[0.75 0 0 0.75 126.92107 186.00528] CT
0.851 0.325 0.098 RC
N
1.333 0 M
1.333 0.736 0.736 1.333 0 1.333 C
-0.736 1.333 -1.333 0.736 -1.333 0 C
-1.333 -0.736 -0.736 -1.333 0 -1.333 C
0.736 -1.333 1.333 -0.736 1.333 0 C
cp
f
GR
GS
[0.75 0 0 0.75 127.91762 186.00528] CT
0.851 0.325 0.098 RC
N
1.333 0 M
1.333 0.736 0.736 1.333 0 1.333 C
-0.736 1.333 -1.333 0.736 -1.333 0 C
-1.333 -0.736 -0.736 -1.333 0 -1.333 C
0.736 -1.333 1.333 -0.736 1.333 0 C
cp
f
GR
GS
[0.75 0 0 0.75 128.91418 186.00528] CT
0.851 0.325 0.098 RC
N
1.333 0 M
1.333 0.736 0.736 1.333 0 1.333 C
-0.736 1.333 -1.333 0.736 -1.333 0 C
-1.333 -0.736 -0.736 -1.333 0 -1.333 C
0.736 -1.333 1.333 -0.736 1.333 0 C
cp
f
GR
GS
[0.75 0 0 0.75 129.91077 186.00528] CT
0.851 0.325 0.098 RC
N
1.333 0 M
1.333 0.736 0.736 1.333 0 1.333 C
-0.736 1.333 -1.333 0.736 -1.333 0 C
-1.333 -0.736 -0.736 -1.333 0 -1.333 C
0.736 -1.333 1.333 -0.736 1.333 0 C
cp
f
GR
GS
[0.75 0 0 0.75 130.90733 186.00528] CT
0.851 0.325 0.098 RC
N
1.333 0 M
1.333 0.736 0.736 1.333 0 1.333 C
-0.736 1.333 -1.333 0.736 -1.333 0 C
-1.333 -0.736 -0.736 -1.333 0 -1.333 C
0.736 -1.333 1.333 -0.736 1.333 0 C
cp
f
GR
GS
[0.75 0 0 0.75 131.9039 186.00528] CT
0.851 0.325 0.098 RC
N
1.333 0 M
1.333 0.736 0.736 1.333 0 1.333 C
-0.736 1.333 -1.333 0.736 -1.333 0 C
-1.333 -0.736 -0.736 -1.333 0 -1.333 C
0.736 -1.333 1.333 -0.736 1.333 0 C
cp
f
GR
GS
[0.75 0 0 0.75 132.90047 186.00528] CT
0.851 0.325 0.098 RC
N
1.333 0 M
1.333 0.736 0.736 1.333 0 1.333 C
-0.736 1.333 -1.333 0.736 -1.333 0 C
-1.333 -0.736 -0.736 -1.333 0 -1.333 C
0.736 -1.333 1.333 -0.736 1.333 0 C
cp
f
GR
GS
[0.75 0 0 0.75 133.89703 186.00528] CT
0.851 0.325 0.098 RC
N
1.333 0 M
1.333 0.736 0.736 1.333 0 1.333 C
-0.736 1.333 -1.333 0.736 -1.333 0 C
-1.333 -0.736 -0.736 -1.333 0 -1.333 C
0.736 -1.333 1.333 -0.736 1.333 0 C
cp
f
GR
GS
[0.75 0 0 0.75 134.8936 186.00528] CT
0.851 0.325 0.098 RC
N
1.333 0 M
1.333 0.736 0.736 1.333 0 1.333 C
-0.736 1.333 -1.333 0.736 -1.333 0 C
-1.333 -0.736 -0.736 -1.333 0 -1.333 C
0.736 -1.333 1.333 -0.736 1.333 0 C
cp
f
GR
GS
[0.75 0 0 0.75 135.89017 186.00528] CT
0.851 0.325 0.098 RC
N
1.333 0 M
1.333 0.736 0.736 1.333 0 1.333 C
-0.736 1.333 -1.333 0.736 -1.333 0 C
-1.333 -0.736 -0.736 -1.333 0 -1.333 C
0.736 -1.333 1.333 -0.736 1.333 0 C
cp
f
GR
GS
[0.75 0 0 0.75 136.88673 186.00528] CT
0.851 0.325 0.098 RC
N
1.333 0 M
1.333 0.736 0.736 1.333 0 1.333 C
-0.736 1.333 -1.333 0.736 -1.333 0 C
-1.333 -0.736 -0.736 -1.333 0 -1.333 C
0.736 -1.333 1.333 -0.736 1.333 0 C
cp
f
GR
GS
[0.75 0 0 0.75 137.8833 186.00528] CT
0.851 0.325 0.098 RC
N
1.333 0 M
1.333 0.736 0.736 1.333 0 1.333 C
-0.736 1.333 -1.333 0.736 -1.333 0 C
-1.333 -0.736 -0.736 -1.333 0 -1.333 C
0.736 -1.333 1.333 -0.736 1.333 0 C
cp
f
GR
GS
[0.75 0 0 0.75 138.87987 186.00528] CT
0.851 0.325 0.098 RC
N
1.333 0 M
1.333 0.736 0.736 1.333 0 1.333 C
-0.736 1.333 -1.333 0.736 -1.333 0 C
-1.333 -0.736 -0.736 -1.333 0 -1.333 C
0.736 -1.333 1.333 -0.736 1.333 0 C
cp
f
GR
GS
[0.75 0 0 0.75 139.87643 186.00528] CT
0.851 0.325 0.098 RC
N
1.333 0 M
1.333 0.736 0.736 1.333 0 1.333 C
-0.736 1.333 -1.333 0.736 -1.333 0 C
-1.333 -0.736 -0.736 -1.333 0 -1.333 C
0.736 -1.333 1.333 -0.736 1.333 0 C
cp
f
GR
GS
[0.75 0 0 0.75 140.87302 186.00528] CT
0.851 0.325 0.098 RC
N
1.333 0 M
1.333 0.736 0.736 1.333 0 1.333 C
-0.736 1.333 -1.333 0.736 -1.333 0 C
-1.333 -0.736 -0.736 -1.333 0 -1.333 C
0.736 -1.333 1.333 -0.736 1.333 0 C
cp
f
GR
GS
[0.75 0 0 0.75 141.86957 186.00528] CT
0.851 0.325 0.098 RC
N
1.333 0 M
1.333 0.736 0.736 1.333 0 1.333 C
-0.736 1.333 -1.333 0.736 -1.333 0 C
-1.333 -0.736 -0.736 -1.333 0 -1.333 C
0.736 -1.333 1.333 -0.736 1.333 0 C
cp
f
GR
GS
[0.75 0 0 0.75 142.86613 186.00528] CT
0.851 0.325 0.098 RC
N
1.333 0 M
1.333 0.736 0.736 1.333 0 1.333 C
-0.736 1.333 -1.333 0.736 -1.333 0 C
-1.333 -0.736 -0.736 -1.333 0 -1.333 C
0.736 -1.333 1.333 -0.736 1.333 0 C
cp
f
GR
GS
[0.75 0 0 0.75 143.86272 186.00528] CT
0.851 0.325 0.098 RC
N
1.333 0 M
1.333 0.736 0.736 1.333 0 1.333 C
-0.736 1.333 -1.333 0.736 -1.333 0 C
-1.333 -0.736 -0.736 -1.333 0 -1.333 C
0.736 -1.333 1.333 -0.736 1.333 0 C
cp
f
GR
GS
[0.75 0 0 0.75 144.85927 186.00528] CT
0.851 0.325 0.098 RC
N
1.333 0 M
1.333 0.736 0.736 1.333 0 1.333 C
-0.736 1.333 -1.333 0.736 -1.333 0 C
-1.333 -0.736 -0.736 -1.333 0 -1.333 C
0.736 -1.333 1.333 -0.736 1.333 0 C
cp
f
GR
GS
[0.75 0 0 0.75 145.85585 186.00528] CT
0.851 0.325 0.098 RC
N
1.333 0 M
1.333 0.736 0.736 1.333 0 1.333 C
-0.736 1.333 -1.333 0.736 -1.333 0 C
-1.333 -0.736 -0.736 -1.333 0 -1.333 C
0.736 -1.333 1.333 -0.736 1.333 0 C
cp
f
GR
GS
[0.75 0 0 0.75 146.85242 186.00528] CT
0.851 0.325 0.098 RC
N
1.333 0 M
1.333 0.736 0.736 1.333 0 1.333 C
-0.736 1.333 -1.333 0.736 -1.333 0 C
-1.333 -0.736 -0.736 -1.333 0 -1.333 C
0.736 -1.333 1.333 -0.736 1.333 0 C
cp
f
GR
GS
[0.75 0 0 0.75 147.84898 186.00528] CT
0.851 0.325 0.098 RC
N
1.333 0 M
1.333 0.736 0.736 1.333 0 1.333 C
-0.736 1.333 -1.333 0.736 -1.333 0 C
-1.333 -0.736 -0.736 -1.333 0 -1.333 C
0.736 -1.333 1.333 -0.736 1.333 0 C
cp
f
GR
GS
[0.75 0 0 0.75 148.84555 186.00528] CT
0.851 0.325 0.098 RC
N
1.333 0 M
1.333 0.736 0.736 1.333 0 1.333 C
-0.736 1.333 -1.333 0.736 -1.333 0 C
-1.333 -0.736 -0.736 -1.333 0 -1.333 C
0.736 -1.333 1.333 -0.736 1.333 0 C
cp
f
GR
GS
[0.75 0 0 0.75 149.84212 186.00528] CT
0.851 0.325 0.098 RC
N
1.333 0 M
1.333 0.736 0.736 1.333 0 1.333 C
-0.736 1.333 -1.333 0.736 -1.333 0 C
-1.333 -0.736 -0.736 -1.333 0 -1.333 C
0.736 -1.333 1.333 -0.736 1.333 0 C
cp
f
GR
GS
[0.75 0 0 0.75 150.83868 186.00528] CT
0.851 0.325 0.098 RC
N
1.333 0 M
1.333 0.736 0.736 1.333 0 1.333 C
-0.736 1.333 -1.333 0.736 -1.333 0 C
-1.333 -0.736 -0.736 -1.333 0 -1.333 C
0.736 -1.333 1.333 -0.736 1.333 0 C
cp
f
GR
GS
[0.75 0 0 0.75 151.83525 186.00528] CT
0.851 0.325 0.098 RC
N
1.333 0 M
1.333 0.736 0.736 1.333 0 1.333 C
-0.736 1.333 -1.333 0.736 -1.333 0 C
-1.333 -0.736 -0.736 -1.333 0 -1.333 C
0.736 -1.333 1.333 -0.736 1.333 0 C
cp
f
GR
GS
[0.75 0 0 0.75 152.83182 186.00528] CT
0.851 0.325 0.098 RC
N
1.333 0 M
1.333 0.736 0.736 1.333 0 1.333 C
-0.736 1.333 -1.333 0.736 -1.333 0 C
-1.333 -0.736 -0.736 -1.333 0 -1.333 C
0.736 -1.333 1.333 -0.736 1.333 0 C
cp
f
GR
GS
[0.75 0 0 0.75 153.82838 186.00528] CT
0.851 0.325 0.098 RC
N
1.333 0 M
1.333 0.736 0.736 1.333 0 1.333 C
-0.736 1.333 -1.333 0.736 -1.333 0 C
-1.333 -0.736 -0.736 -1.333 0 -1.333 C
0.736 -1.333 1.333 -0.736 1.333 0 C
cp
f
GR
GS
[0.75 0 0 0.75 154.82495 186.00528] CT
0.851 0.325 0.098 RC
N
1.333 0 M
1.333 0.736 0.736 1.333 0 1.333 C
-0.736 1.333 -1.333 0.736 -1.333 0 C
-1.333 -0.736 -0.736 -1.333 0 -1.333 C
0.736 -1.333 1.333 -0.736 1.333 0 C
cp
f
GR
GS
[0.75 0 0 0.75 155.82152 186.00528] CT
0.851 0.325 0.098 RC
N
1.333 0 M
1.333 0.736 0.736 1.333 0 1.333 C
-0.736 1.333 -1.333 0.736 -1.333 0 C
-1.333 -0.736 -0.736 -1.333 0 -1.333 C
0.736 -1.333 1.333 -0.736 1.333 0 C
cp
f
GR
GS
[0.75 0 0 0.75 156.81808 186.00528] CT
0.851 0.325 0.098 RC
N
1.333 0 M
1.333 0.736 0.736 1.333 0 1.333 C
-0.736 1.333 -1.333 0.736 -1.333 0 C
-1.333 -0.736 -0.736 -1.333 0 -1.333 C
0.736 -1.333 1.333 -0.736 1.333 0 C
cp
f
GR
GS
[0.75 0 0 0.75 157.81467 186.00528] CT
0.851 0.325 0.098 RC
N
1.333 0 M
1.333 0.736 0.736 1.333 0 1.333 C
-0.736 1.333 -1.333 0.736 -1.333 0 C
-1.333 -0.736 -0.736 -1.333 0 -1.333 C
0.736 -1.333 1.333 -0.736 1.333 0 C
cp
f
GR
GS
[0.75 0 0 0.75 158.81122 186.00528] CT
0.851 0.325 0.098 RC
N
1.333 0 M
1.333 0.736 0.736 1.333 0 1.333 C
-0.736 1.333 -1.333 0.736 -1.333 0 C
-1.333 -0.736 -0.736 -1.333 0 -1.333 C
0.736 -1.333 1.333 -0.736 1.333 0 C
cp
f
GR
GS
[0.75 0 0 0.75 159.8078 186.00528] CT
0.851 0.325 0.098 RC
N
1.333 0 M
1.333 0.736 0.736 1.333 0 1.333 C
-0.736 1.333 -1.333 0.736 -1.333 0 C
-1.333 -0.736 -0.736 -1.333 0 -1.333 C
0.736 -1.333 1.333 -0.736 1.333 0 C
cp
f
GR
GS
[0.75 0 0 0.75 160.80437 186.00528] CT
0.851 0.325 0.098 RC
N
1.333 0 M
1.333 0.736 0.736 1.333 0 1.333 C
-0.736 1.333 -1.333 0.736 -1.333 0 C
-1.333 -0.736 -0.736 -1.333 0 -1.333 C
0.736 -1.333 1.333 -0.736 1.333 0 C
cp
f
GR
GS
[0.75 0 0 0.75 161.80093 186.00528] CT
0.851 0.325 0.098 RC
N
1.333 0 M
1.333 0.736 0.736 1.333 0 1.333 C
-0.736 1.333 -1.333 0.736 -1.333 0 C
-1.333 -0.736 -0.736 -1.333 0 -1.333 C
0.736 -1.333 1.333 -0.736 1.333 0 C
cp
f
GR
GS
[0.75 0 0 0.75 162.7975 186.00528] CT
0.851 0.325 0.098 RC
N
1.333 0 M
1.333 0.736 0.736 1.333 0 1.333 C
-0.736 1.333 -1.333 0.736 -1.333 0 C
-1.333 -0.736 -0.736 -1.333 0 -1.333 C
0.736 -1.333 1.333 -0.736 1.333 0 C
cp
f
GR
GS
[0.75 0 0 0.75 163.79407 186.00528] CT
0.851 0.325 0.098 RC
N
1.333 0 M
1.333 0.736 0.736 1.333 0 1.333 C
-0.736 1.333 -1.333 0.736 -1.333 0 C
-1.333 -0.736 -0.736 -1.333 0 -1.333 C
0.736 -1.333 1.333 -0.736 1.333 0 C
cp
f
GR
GS
[0.75 0 0 0.75 164.79063 186.00528] CT
0.851 0.325 0.098 RC
N
1.333 0 M
1.333 0.736 0.736 1.333 0 1.333 C
-0.736 1.333 -1.333 0.736 -1.333 0 C
-1.333 -0.736 -0.736 -1.333 0 -1.333 C
0.736 -1.333 1.333 -0.736 1.333 0 C
cp
f
GR
GS
[0.75 0 0 0.75 165.7872 186.00528] CT
0.851 0.325 0.098 RC
N
1.333 0 M
1.333 0.736 0.736 1.333 0 1.333 C
-0.736 1.333 -1.333 0.736 -1.333 0 C
-1.333 -0.736 -0.736 -1.333 0 -1.333 C
0.736 -1.333 1.333 -0.736 1.333 0 C
cp
f
GR
GS
[0.75 0 0 0.75 166.78377 186.00528] CT
0.851 0.325 0.098 RC
N
1.333 0 M
1.333 0.736 0.736 1.333 0 1.333 C
-0.736 1.333 -1.333 0.736 -1.333 0 C
-1.333 -0.736 -0.736 -1.333 0 -1.333 C
0.736 -1.333 1.333 -0.736 1.333 0 C
cp
f
GR
GS
[0.75 0 0 0.75 167.78033 162.33845] CT
0.851 0.325 0.098 RC
N
1.333 0 M
1.333 0.736 0.736 1.333 0 1.333 C
-0.736 1.333 -1.333 0.736 -1.333 0 C
-1.333 -0.736 -0.736 -1.333 0 -1.333 C
0.736 -1.333 1.333 -0.736 1.333 0 C
cp
f
GR
GS
[0.75 0 0 0.75 168.77691 162.33845] CT
0.851 0.325 0.098 RC
N
1.333 0 M
1.333 0.736 0.736 1.333 0 1.333 C
-0.736 1.333 -1.333 0.736 -1.333 0 C
-1.333 -0.736 -0.736 -1.333 0 -1.333 C
0.736 -1.333 1.333 -0.736 1.333 0 C
cp
f
GR
GS
[0.75 0 0 0.75 169.77347 162.33845] CT
0.851 0.325 0.098 RC
N
1.333 0 M
1.333 0.736 0.736 1.333 0 1.333 C
-0.736 1.333 -1.333 0.736 -1.333 0 C
-1.333 -0.736 -0.736 -1.333 0 -1.333 C
0.736 -1.333 1.333 -0.736 1.333 0 C
cp
f
GR
GS
[0.75 0 0 0.75 170.77005 162.33845] CT
0.851 0.325 0.098 RC
N
1.333 0 M
1.333 0.736 0.736 1.333 0 1.333 C
-0.736 1.333 -1.333 0.736 -1.333 0 C
-1.333 -0.736 -0.736 -1.333 0 -1.333 C
0.736 -1.333 1.333 -0.736 1.333 0 C
cp
f
GR
GS
[0.75 0 0 0.75 171.76662 162.33845] CT
0.851 0.325 0.098 RC
N
1.333 0 M
1.333 0.736 0.736 1.333 0 1.333 C
-0.736 1.333 -1.333 0.736 -1.333 0 C
-1.333 -0.736 -0.736 -1.333 0 -1.333 C
0.736 -1.333 1.333 -0.736 1.333 0 C
cp
f
GR
GS
[0.75 0 0 0.75 172.76317 162.33845] CT
0.851 0.325 0.098 RC
N
1.333 0 M
1.333 0.736 0.736 1.333 0 1.333 C
-0.736 1.333 -1.333 0.736 -1.333 0 C
-1.333 -0.736 -0.736 -1.333 0 -1.333 C
0.736 -1.333 1.333 -0.736 1.333 0 C
cp
f
GR
GS
[0.75 0 0 0.75 173.75975 162.33845] CT
0.851 0.325 0.098 RC
N
1.333 0 M
1.333 0.736 0.736 1.333 0 1.333 C
-0.736 1.333 -1.333 0.736 -1.333 0 C
-1.333 -0.736 -0.736 -1.333 0 -1.333 C
0.736 -1.333 1.333 -0.736 1.333 0 C
cp
f
GR
GS
[0.75 0 0 0.75 174.75632 162.33845] CT
0.851 0.325 0.098 RC
N
1.333 0 M
1.333 0.736 0.736 1.333 0 1.333 C
-0.736 1.333 -1.333 0.736 -1.333 0 C
-1.333 -0.736 -0.736 -1.333 0 -1.333 C
0.736 -1.333 1.333 -0.736 1.333 0 C
cp
f
GR
GS
[0.75 0 0 0.75 175.75287 162.33845] CT
0.851 0.325 0.098 RC
N
1.333 0 M
1.333 0.736 0.736 1.333 0 1.333 C
-0.736 1.333 -1.333 0.736 -1.333 0 C
-1.333 -0.736 -0.736 -1.333 0 -1.333 C
0.736 -1.333 1.333 -0.736 1.333 0 C
cp
f
GR
GS
[0.75 0 0 0.75 176.74945 162.33845] CT
0.851 0.325 0.098 RC
N
1.333 0 M
1.333 0.736 0.736 1.333 0 1.333 C
-0.736 1.333 -1.333 0.736 -1.333 0 C
-1.333 -0.736 -0.736 -1.333 0 -1.333 C
0.736 -1.333 1.333 -0.736 1.333 0 C
cp
f
GR
GS
[0.75 0 0 0.75 177.74602 162.33845] CT
0.851 0.325 0.098 RC
N
1.333 0 M
1.333 0.736 0.736 1.333 0 1.333 C
-0.736 1.333 -1.333 0.736 -1.333 0 C
-1.333 -0.736 -0.736 -1.333 0 -1.333 C
0.736 -1.333 1.333 -0.736 1.333 0 C
cp
f
GR
GS
[0.75 0 0 0.75 178.74258 162.33845] CT
0.851 0.325 0.098 RC
N
1.333 0 M
1.333 0.736 0.736 1.333 0 1.333 C
-0.736 1.333 -1.333 0.736 -1.333 0 C
-1.333 -0.736 -0.736 -1.333 0 -1.333 C
0.736 -1.333 1.333 -0.736 1.333 0 C
cp
f
GR
GS
[0.75 0 0 0.75 179.73915 162.33845] CT
0.851 0.325 0.098 RC
N
1.333 0 M
1.333 0.736 0.736 1.333 0 1.333 C
-0.736 1.333 -1.333 0.736 -1.333 0 C
-1.333 -0.736 -0.736 -1.333 0 -1.333 C
0.736 -1.333 1.333 -0.736 1.333 0 C
cp
f
GR
GS
[0.75 0 0 0.75 180.73572 162.33845] CT
0.851 0.325 0.098 RC
N
1.333 0 M
1.333 0.736 0.736 1.333 0 1.333 C
-0.736 1.333 -1.333 0.736 -1.333 0 C
-1.333 -0.736 -0.736 -1.333 0 -1.333 C
0.736 -1.333 1.333 -0.736 1.333 0 C
cp
f
GR
GS
[0.75 0 0 0.75 181.73228 162.33845] CT
0.851 0.325 0.098 RC
N
1.333 0 M
1.333 0.736 0.736 1.333 0 1.333 C
-0.736 1.333 -1.333 0.736 -1.333 0 C
-1.333 -0.736 -0.736 -1.333 0 -1.333 C
0.736 -1.333 1.333 -0.736 1.333 0 C
cp
f
GR
GS
[0.75 0 0 0.75 182.72886 162.33845] CT
0.851 0.325 0.098 RC
N
1.333 0 M
1.333 0.736 0.736 1.333 0 1.333 C
-0.736 1.333 -1.333 0.736 -1.333 0 C
-1.333 -0.736 -0.736 -1.333 0 -1.333 C
0.736 -1.333 1.333 -0.736 1.333 0 C
cp
f
GR
GS
[0.75 0 0 0.75 183.72542 162.33845] CT
0.851 0.325 0.098 RC
N
1.333 0 M
1.333 0.736 0.736 1.333 0 1.333 C
-0.736 1.333 -1.333 0.736 -1.333 0 C
-1.333 -0.736 -0.736 -1.333 0 -1.333 C
0.736 -1.333 1.333 -0.736 1.333 0 C
cp
f
GR
GS
[0.75 0 0 0.75 184.722 162.33845] CT
0.851 0.325 0.098 RC
N
1.333 0 M
1.333 0.736 0.736 1.333 0 1.333 C
-0.736 1.333 -1.333 0.736 -1.333 0 C
-1.333 -0.736 -0.736 -1.333 0 -1.333 C
0.736 -1.333 1.333 -0.736 1.333 0 C
cp
f
GR
GS
[0.75 0 0 0.75 185.71857 162.33845] CT
0.851 0.325 0.098 RC
N
1.333 0 M
1.333 0.736 0.736 1.333 0 1.333 C
-0.736 1.333 -1.333 0.736 -1.333 0 C
-1.333 -0.736 -0.736 -1.333 0 -1.333 C
0.736 -1.333 1.333 -0.736 1.333 0 C
cp
f
GR
GS
[0.75 0 0 0.75 186.71512 162.33845] CT
0.851 0.325 0.098 RC
N
1.333 0 M
1.333 0.736 0.736 1.333 0 1.333 C
-0.736 1.333 -1.333 0.736 -1.333 0 C
-1.333 -0.736 -0.736 -1.333 0 -1.333 C
0.736 -1.333 1.333 -0.736 1.333 0 C
cp
f
GR
GS
[0.75 0 0 0.75 187.7117 162.33845] CT
0.851 0.325 0.098 RC
N
1.333 0 M
1.333 0.736 0.736 1.333 0 1.333 C
-0.736 1.333 -1.333 0.736 -1.333 0 C
-1.333 -0.736 -0.736 -1.333 0 -1.333 C
0.736 -1.333 1.333 -0.736 1.333 0 C
cp
f
GR
GS
[0.75 0 0 0.75 188.70827 162.33845] CT
0.851 0.325 0.098 RC
N
1.333 0 M
1.333 0.736 0.736 1.333 0 1.333 C
-0.736 1.333 -1.333 0.736 -1.333 0 C
-1.333 -0.736 -0.736 -1.333 0 -1.333 C
0.736 -1.333 1.333 -0.736 1.333 0 C
cp
f
GR
GS
[0.75 0 0 0.75 189.70482 162.33845] CT
0.851 0.325 0.098 RC
N
1.333 0 M
1.333 0.736 0.736 1.333 0 1.333 C
-0.736 1.333 -1.333 0.736 -1.333 0 C
-1.333 -0.736 -0.736 -1.333 0 -1.333 C
0.736 -1.333 1.333 -0.736 1.333 0 C
cp
f
GR
GS
[0.75 0 0 0.75 190.7014 162.33845] CT
0.851 0.325 0.098 RC
N
1.333 0 M
1.333 0.736 0.736 1.333 0 1.333 C
-0.736 1.333 -1.333 0.736 -1.333 0 C
-1.333 -0.736 -0.736 -1.333 0 -1.333 C
0.736 -1.333 1.333 -0.736 1.333 0 C
cp
f
GR
GS
[0.75 0 0 0.75 191.69797 162.33845] CT
0.851 0.325 0.098 RC
N
1.333 0 M
1.333 0.736 0.736 1.333 0 1.333 C
-0.736 1.333 -1.333 0.736 -1.333 0 C
-1.333 -0.736 -0.736 -1.333 0 -1.333 C
0.736 -1.333 1.333 -0.736 1.333 0 C
cp
f
GR
GS
[0.75 0 0 0.75 192.69452 162.33845] CT
0.851 0.325 0.098 RC
N
1.333 0 M
1.333 0.736 0.736 1.333 0 1.333 C
-0.736 1.333 -1.333 0.736 -1.333 0 C
-1.333 -0.736 -0.736 -1.333 0 -1.333 C
0.736 -1.333 1.333 -0.736 1.333 0 C
cp
f
GR
GS
[0.75 0 0 0.75 193.69112 162.33845] CT
0.851 0.325 0.098 RC
N
1.333 0 M
1.333 0.736 0.736 1.333 0 1.333 C
-0.736 1.333 -1.333 0.736 -1.333 0 C
-1.333 -0.736 -0.736 -1.333 0 -1.333 C
0.736 -1.333 1.333 -0.736 1.333 0 C
cp
f
GR
GS
[0.75 0 0 0.75 194.68767 162.33845] CT
0.851 0.325 0.098 RC
N
1.333 0 M
1.333 0.736 0.736 1.333 0 1.333 C
-0.736 1.333 -1.333 0.736 -1.333 0 C
-1.333 -0.736 -0.736 -1.333 0 -1.333 C
0.736 -1.333 1.333 -0.736 1.333 0 C
cp
f
GR
GS
[0.75 0 0 0.75 195.68422 162.33845] CT
0.851 0.325 0.098 RC
N
1.333 0 M
1.333 0.736 0.736 1.333 0 1.333 C
-0.736 1.333 -1.333 0.736 -1.333 0 C
-1.333 -0.736 -0.736 -1.333 0 -1.333 C
0.736 -1.333 1.333 -0.736 1.333 0 C
cp
f
GR
GS
[0.75 0 0 0.75 196.68082 162.33845] CT
0.851 0.325 0.098 RC
N
1.333 0 M
1.333 0.736 0.736 1.333 0 1.333 C
-0.736 1.333 -1.333 0.736 -1.333 0 C
-1.333 -0.736 -0.736 -1.333 0 -1.333 C
0.736 -1.333 1.333 -0.736 1.333 0 C
cp
f
GR
GS
[0.75 0 0 0.75 197.67737 162.33845] CT
0.851 0.325 0.098 RC
N
1.333 0 M
1.333 0.736 0.736 1.333 0 1.333 C
-0.736 1.333 -1.333 0.736 -1.333 0 C
-1.333 -0.736 -0.736 -1.333 0 -1.333 C
0.736 -1.333 1.333 -0.736 1.333 0 C
cp
f
GR
GS
[0.75 0 0 0.75 198.67394 162.33845] CT
0.851 0.325 0.098 RC
N
1.333 0 M
1.333 0.736 0.736 1.333 0 1.333 C
-0.736 1.333 -1.333 0.736 -1.333 0 C
-1.333 -0.736 -0.736 -1.333 0 -1.333 C
0.736 -1.333 1.333 -0.736 1.333 0 C
cp
f
GR
GS
[0.75 0 0 0.75 199.67052 162.33845] CT
0.851 0.325 0.098 RC
N
1.333 0 M
1.333 0.736 0.736 1.333 0 1.333 C
-0.736 1.333 -1.333 0.736 -1.333 0 C
-1.333 -0.736 -0.736 -1.333 0 -1.333 C
0.736 -1.333 1.333 -0.736 1.333 0 C
cp
f
GR
GS
[0.75 0 0 0.75 200.66707 162.33845] CT
0.851 0.325 0.098 RC
N
1.333 0 M
1.333 0.736 0.736 1.333 0 1.333 C
-0.736 1.333 -1.333 0.736 -1.333 0 C
-1.333 -0.736 -0.736 -1.333 0 -1.333 C
0.736 -1.333 1.333 -0.736 1.333 0 C
cp
f
GR
GS
[0.75 0 0 0.75 201.66364 162.33845] CT
0.851 0.325 0.098 RC
N
1.333 0 M
1.333 0.736 0.736 1.333 0 1.333 C
-0.736 1.333 -1.333 0.736 -1.333 0 C
-1.333 -0.736 -0.736 -1.333 0 -1.333 C
0.736 -1.333 1.333 -0.736 1.333 0 C
cp
f
GR
GS
[0.75 0 0 0.75 202.66022 162.33845] CT
0.851 0.325 0.098 RC
N
1.333 0 M
1.333 0.736 0.736 1.333 0 1.333 C
-0.736 1.333 -1.333 0.736 -1.333 0 C
-1.333 -0.736 -0.736 -1.333 0 -1.333 C
0.736 -1.333 1.333 -0.736 1.333 0 C
cp
f
GR
GS
[0.75 0 0 0.75 203.65677 162.33845] CT
0.851 0.325 0.098 RC
N
1.333 0 M
1.333 0.736 0.736 1.333 0 1.333 C
-0.736 1.333 -1.333 0.736 -1.333 0 C
-1.333 -0.736 -0.736 -1.333 0 -1.333 C
0.736 -1.333 1.333 -0.736 1.333 0 C
cp
f
GR
GS
[0.75 0 0 0.75 204.65337 140.11601] CT
0.851 0.325 0.098 RC
N
1.333 0 M
1.333 0.736 0.736 1.333 0 1.333 C
-0.736 1.333 -1.333 0.736 -1.333 0 C
-1.333 -0.736 -0.736 -1.333 0 -1.333 C
0.736 -1.333 1.333 -0.736 1.333 0 C
cp
f
GR
GS
[0.75 0 0 0.75 205.64992 140.11601] CT
0.851 0.325 0.098 RC
N
1.333 0 M
1.333 0.736 0.736 1.333 0 1.333 C
-0.736 1.333 -1.333 0.736 -1.333 0 C
-1.333 -0.736 -0.736 -1.333 0 -1.333 C
0.736 -1.333 1.333 -0.736 1.333 0 C
cp
f
GR
GS
[0.75 0 0 0.75 206.64647 140.11601] CT
0.851 0.325 0.098 RC
N
1.333 0 M
1.333 0.736 0.736 1.333 0 1.333 C
-0.736 1.333 -1.333 0.736 -1.333 0 C
-1.333 -0.736 -0.736 -1.333 0 -1.333 C
0.736 -1.333 1.333 -0.736 1.333 0 C
cp
f
GR
GS
[0.75 0 0 0.75 207.64307 140.11601] CT
0.851 0.325 0.098 RC
N
1.333 0 M
1.333 0.736 0.736 1.333 0 1.333 C
-0.736 1.333 -1.333 0.736 -1.333 0 C
-1.333 -0.736 -0.736 -1.333 0 -1.333 C
0.736 -1.333 1.333 -0.736 1.333 0 C
cp
f
GR
GS
[0.75 0 0 0.75 208.63962 140.11601] CT
0.851 0.325 0.098 RC
N
1.333 0 M
1.333 0.736 0.736 1.333 0 1.333 C
-0.736 1.333 -1.333 0.736 -1.333 0 C
-1.333 -0.736 -0.736 -1.333 0 -1.333 C
0.736 -1.333 1.333 -0.736 1.333 0 C
cp
f
GR
GS
[0.75 0 0 0.75 209.63619 140.11601] CT
0.851 0.325 0.098 RC
N
1.333 0 M
1.333 0.736 0.736 1.333 0 1.333 C
-0.736 1.333 -1.333 0.736 -1.333 0 C
-1.333 -0.736 -0.736 -1.333 0 -1.333 C
0.736 -1.333 1.333 -0.736 1.333 0 C
cp
f
GR
GS
[0.75 0 0 0.75 210.63277 140.11601] CT
0.851 0.325 0.098 RC
N
1.333 0 M
1.333 0.736 0.736 1.333 0 1.333 C
-0.736 1.333 -1.333 0.736 -1.333 0 C
-1.333 -0.736 -0.736 -1.333 0 -1.333 C
0.736 -1.333 1.333 -0.736 1.333 0 C
cp
f
GR
GS
[0.75 0 0 0.75 211.62932 140.11601] CT
0.851 0.325 0.098 RC
N
1.333 0 M
1.333 0.736 0.736 1.333 0 1.333 C
-0.736 1.333 -1.333 0.736 -1.333 0 C
-1.333 -0.736 -0.736 -1.333 0 -1.333 C
0.736 -1.333 1.333 -0.736 1.333 0 C
cp
f
GR
GS
[0.75 0 0 0.75 212.62589 140.11601] CT
0.851 0.325 0.098 RC
N
1.333 0 M
1.333 0.736 0.736 1.333 0 1.333 C
-0.736 1.333 -1.333 0.736 -1.333 0 C
-1.333 -0.736 -0.736 -1.333 0 -1.333 C
0.736 -1.333 1.333 -0.736 1.333 0 C
cp
f
GR
GS
[0.75 0 0 0.75 213.62247 140.11601] CT
0.851 0.325 0.098 RC
N
1.333 0 M
1.333 0.736 0.736 1.333 0 1.333 C
-0.736 1.333 -1.333 0.736 -1.333 0 C
-1.333 -0.736 -0.736 -1.333 0 -1.333 C
0.736 -1.333 1.333 -0.736 1.333 0 C
cp
f
GR
GS
[0.75 0 0 0.75 214.61902 140.11601] CT
0.851 0.325 0.098 RC
N
1.333 0 M
1.333 0.736 0.736 1.333 0 1.333 C
-0.736 1.333 -1.333 0.736 -1.333 0 C
-1.333 -0.736 -0.736 -1.333 0 -1.333 C
0.736 -1.333 1.333 -0.736 1.333 0 C
cp
f
GR
GS
[0.75 0 0 0.75 215.61559 140.11601] CT
0.851 0.325 0.098 RC
N
1.333 0 M
1.333 0.736 0.736 1.333 0 1.333 C
-0.736 1.333 -1.333 0.736 -1.333 0 C
-1.333 -0.736 -0.736 -1.333 0 -1.333 C
0.736 -1.333 1.333 -0.736 1.333 0 C
cp
f
GR
GS
[0.75 0 0 0.75 216.61217 140.11601] CT
0.851 0.325 0.098 RC
N
1.333 0 M
1.333 0.736 0.736 1.333 0 1.333 C
-0.736 1.333 -1.333 0.736 -1.333 0 C
-1.333 -0.736 -0.736 -1.333 0 -1.333 C
0.736 -1.333 1.333 -0.736 1.333 0 C
cp
f
GR
GS
[0.75 0 0 0.75 217.60872 140.11601] CT
0.851 0.325 0.098 RC
N
1.333 0 M
1.333 0.736 0.736 1.333 0 1.333 C
-0.736 1.333 -1.333 0.736 -1.333 0 C
-1.333 -0.736 -0.736 -1.333 0 -1.333 C
0.736 -1.333 1.333 -0.736 1.333 0 C
cp
f
GR
GS
[0.75 0 0 0.75 218.60529 140.11601] CT
0.851 0.325 0.098 RC
N
1.333 0 M
1.333 0.736 0.736 1.333 0 1.333 C
-0.736 1.333 -1.333 0.736 -1.333 0 C
-1.333 -0.736 -0.736 -1.333 0 -1.333 C
0.736 -1.333 1.333 -0.736 1.333 0 C
cp
f
GR
GS
[0.75 0 0 0.75 219.60187 140.11601] CT
0.851 0.325 0.098 RC
N
1.333 0 M
1.333 0.736 0.736 1.333 0 1.333 C
-0.736 1.333 -1.333 0.736 -1.333 0 C
-1.333 -0.736 -0.736 -1.333 0 -1.333 C
0.736 -1.333 1.333 -0.736 1.333 0 C
cp
f
GR
GS
[0.75 0 0 0.75 220.59842 140.11601] CT
0.851 0.325 0.098 RC
N
1.333 0 M
1.333 0.736 0.736 1.333 0 1.333 C
-0.736 1.333 -1.333 0.736 -1.333 0 C
-1.333 -0.736 -0.736 -1.333 0 -1.333 C
0.736 -1.333 1.333 -0.736 1.333 0 C
cp
f
GR
GS
[0.75 0 0 0.75 221.59502 140.11601] CT
0.851 0.325 0.098 RC
N
1.333 0 M
1.333 0.736 0.736 1.333 0 1.333 C
-0.736 1.333 -1.333 0.736 -1.333 0 C
-1.333 -0.736 -0.736 -1.333 0 -1.333 C
0.736 -1.333 1.333 -0.736 1.333 0 C
cp
f
GR
GS
[0.75 0 0 0.75 222.59157 140.11601] CT
0.851 0.325 0.098 RC
N
1.333 0 M
1.333 0.736 0.736 1.333 0 1.333 C
-0.736 1.333 -1.333 0.736 -1.333 0 C
-1.333 -0.736 -0.736 -1.333 0 -1.333 C
0.736 -1.333 1.333 -0.736 1.333 0 C
cp
f
GR
GS
[0.75 0 0 0.75 223.58814 140.11601] CT
0.851 0.325 0.098 RC
N
1.333 0 M
1.333 0.736 0.736 1.333 0 1.333 C
-0.736 1.333 -1.333 0.736 -1.333 0 C
-1.333 -0.736 -0.736 -1.333 0 -1.333 C
0.736 -1.333 1.333 -0.736 1.333 0 C
cp
f
GR
GS
[0.75 0 0 0.75 224.58472 140.11601] CT
0.851 0.325 0.098 RC
N
1.333 0 M
1.333 0.736 0.736 1.333 0 1.333 C
-0.736 1.333 -1.333 0.736 -1.333 0 C
-1.333 -0.736 -0.736 -1.333 0 -1.333 C
0.736 -1.333 1.333 -0.736 1.333 0 C
cp
f
GR
GS
[0.75 0 0 0.75 225.58127 140.11601] CT
0.851 0.325 0.098 RC
N
1.333 0 M
1.333 0.736 0.736 1.333 0 1.333 C
-0.736 1.333 -1.333 0.736 -1.333 0 C
-1.333 -0.736 -0.736 -1.333 0 -1.333 C
0.736 -1.333 1.333 -0.736 1.333 0 C
cp
f
GR
GS
[0.75 0 0 0.75 226.57784 140.11601] CT
0.851 0.325 0.098 RC
N
1.333 0 M
1.333 0.736 0.736 1.333 0 1.333 C
-0.736 1.333 -1.333 0.736 -1.333 0 C
-1.333 -0.736 -0.736 -1.333 0 -1.333 C
0.736 -1.333 1.333 -0.736 1.333 0 C
cp
f
GR
GS
[0.75 0 0 0.75 227.57442 140.11601] CT
0.851 0.325 0.098 RC
N
1.333 0 M
1.333 0.736 0.736 1.333 0 1.333 C
-0.736 1.333 -1.333 0.736 -1.333 0 C
-1.333 -0.736 -0.736 -1.333 0 -1.333 C
0.736 -1.333 1.333 -0.736 1.333 0 C
cp
f
GR
GS
[0.75 0 0 0.75 228.57097 140.11601] CT
0.851 0.325 0.098 RC
N
1.333 0 M
1.333 0.736 0.736 1.333 0 1.333 C
-0.736 1.333 -1.333 0.736 -1.333 0 C
-1.333 -0.736 -0.736 -1.333 0 -1.333 C
0.736 -1.333 1.333 -0.736 1.333 0 C
cp
f
GR
GS
[0.75 0 0 0.75 229.56754 140.11601] CT
0.851 0.325 0.098 RC
N
1.333 0 M
1.333 0.736 0.736 1.333 0 1.333 C
-0.736 1.333 -1.333 0.736 -1.333 0 C
-1.333 -0.736 -0.736 -1.333 0 -1.333 C
0.736 -1.333 1.333 -0.736 1.333 0 C
cp
f
GR
GS
[0.75 0 0 0.75 230.56412 140.11601] CT
0.851 0.325 0.098 RC
N
1.333 0 M
1.333 0.736 0.736 1.333 0 1.333 C
-0.736 1.333 -1.333 0.736 -1.333 0 C
-1.333 -0.736 -0.736 -1.333 0 -1.333 C
0.736 -1.333 1.333 -0.736 1.333 0 C
cp
f
GR
GS
[0.75 0 0 0.75 231.56067 140.11601] CT
0.851 0.325 0.098 RC
N
1.333 0 M
1.333 0.736 0.736 1.333 0 1.333 C
-0.736 1.333 -1.333 0.736 -1.333 0 C
-1.333 -0.736 -0.736 -1.333 0 -1.333 C
0.736 -1.333 1.333 -0.736 1.333 0 C
cp
f
GR
GS
[0.75 0 0 0.75 232.55724 140.11601] CT
0.851 0.325 0.098 RC
N
1.333 0 M
1.333 0.736 0.736 1.333 0 1.333 C
-0.736 1.333 -1.333 0.736 -1.333 0 C
-1.333 -0.736 -0.736 -1.333 0 -1.333 C
0.736 -1.333 1.333 -0.736 1.333 0 C
cp
f
GR
GS
[0.75 0 0 0.75 233.55382 140.11601] CT
0.851 0.325 0.098 RC
N
1.333 0 M
1.333 0.736 0.736 1.333 0 1.333 C
-0.736 1.333 -1.333 0.736 -1.333 0 C
-1.333 -0.736 -0.736 -1.333 0 -1.333 C
0.736 -1.333 1.333 -0.736 1.333 0 C
cp
f
GR
GS
[0.75 0 0 0.75 234.55037 140.11601] CT
0.851 0.325 0.098 RC
N
1.333 0 M
1.333 0.736 0.736 1.333 0 1.333 C
-0.736 1.333 -1.333 0.736 -1.333 0 C
-1.333 -0.736 -0.736 -1.333 0 -1.333 C
0.736 -1.333 1.333 -0.736 1.333 0 C
cp
f
GR
GS
[0.75 0 0 0.75 235.54697 140.11601] CT
0.851 0.325 0.098 RC
N
1.333 0 M
1.333 0.736 0.736 1.333 0 1.333 C
-0.736 1.333 -1.333 0.736 -1.333 0 C
-1.333 -0.736 -0.736 -1.333 0 -1.333 C
0.736 -1.333 1.333 -0.736 1.333 0 C
cp
f
GR
GS
[0.75 0 0 0.75 236.54352 140.11601] CT
0.851 0.325 0.098 RC
N
1.333 0 M
1.333 0.736 0.736 1.333 0 1.333 C
-0.736 1.333 -1.333 0.736 -1.333 0 C
-1.333 -0.736 -0.736 -1.333 0 -1.333 C
0.736 -1.333 1.333 -0.736 1.333 0 C
cp
f
GR
GS
[0.75 0 0 0.75 237.54009 140.11601] CT
0.851 0.325 0.098 RC
N
1.333 0 M
1.333 0.736 0.736 1.333 0 1.333 C
-0.736 1.333 -1.333 0.736 -1.333 0 C
-1.333 -0.736 -0.736 -1.333 0 -1.333 C
0.736 -1.333 1.333 -0.736 1.333 0 C
cp
f
GR
GS
[0.75 0 0 0.75 238.53667 140.11601] CT
0.851 0.325 0.098 RC
N
1.333 0 M
1.333 0.736 0.736 1.333 0 1.333 C
-0.736 1.333 -1.333 0.736 -1.333 0 C
-1.333 -0.736 -0.736 -1.333 0 -1.333 C
0.736 -1.333 1.333 -0.736 1.333 0 C
cp
f
GR
GS
[0.75 0 0 0.75 239.53322 140.11601] CT
0.851 0.325 0.098 RC
N
1.333 0 M
1.333 0.736 0.736 1.333 0 1.333 C
-0.736 1.333 -1.333 0.736 -1.333 0 C
-1.333 -0.736 -0.736 -1.333 0 -1.333 C
0.736 -1.333 1.333 -0.736 1.333 0 C
cp
f
GR
GS
[0.75 0 0 0.75 240.52979 140.11601] CT
0.851 0.325 0.098 RC
N
1.333 0 M
1.333 0.736 0.736 1.333 0 1.333 C
-0.736 1.333 -1.333 0.736 -1.333 0 C
-1.333 -0.736 -0.736 -1.333 0 -1.333 C
0.736 -1.333 1.333 -0.736 1.333 0 C
cp
f
GR
GS
[0.75 0 0 0.75 241.52637 140.11601] CT
0.851 0.325 0.098 RC
N
1.333 0 M
1.333 0.736 0.736 1.333 0 1.333 C
-0.736 1.333 -1.333 0.736 -1.333 0 C
-1.333 -0.736 -0.736 -1.333 0 -1.333 C
0.736 -1.333 1.333 -0.736 1.333 0 C
cp
f
GR
GS
[0.75 0 0 0.75 242.52292 140.11601] CT
0.851 0.325 0.098 RC
N
1.333 0 M
1.333 0.736 0.736 1.333 0 1.333 C
-0.736 1.333 -1.333 0.736 -1.333 0 C
-1.333 -0.736 -0.736 -1.333 0 -1.333 C
0.736 -1.333 1.333 -0.736 1.333 0 C
cp
f
GR
GS
[0.75 0 0 0.75 243.51949 140.11601] CT
0.851 0.325 0.098 RC
N
1.333 0 M
1.333 0.736 0.736 1.333 0 1.333 C
-0.736 1.333 -1.333 0.736 -1.333 0 C
-1.333 -0.736 -0.736 -1.333 0 -1.333 C
0.736 -1.333 1.333 -0.736 1.333 0 C
cp
f
GR
GS
[0.75 0 0 0.75 244.51607 140.11601] CT
0.851 0.325 0.098 RC
N
1.333 0 M
1.333 0.736 0.736 1.333 0 1.333 C
-0.736 1.333 -1.333 0.736 -1.333 0 C
-1.333 -0.736 -0.736 -1.333 0 -1.333 C
0.736 -1.333 1.333 -0.736 1.333 0 C
cp
f
GR
GS
[0.75 0 0 0.75 245.51262 140.11601] CT
0.851 0.325 0.098 RC
N
1.333 0 M
1.333 0.736 0.736 1.333 0 1.333 C
-0.736 1.333 -1.333 0.736 -1.333 0 C
-1.333 -0.736 -0.736 -1.333 0 -1.333 C
0.736 -1.333 1.333 -0.736 1.333 0 C
cp
f
GR
GS
[0.75 0 0 0.75 246.50919 115.56838] CT
0.851 0.325 0.098 RC
N
1.333 0 M
1.333 0.736 0.736 1.333 0 1.333 C
-0.736 1.333 -1.333 0.736 -1.333 0 C
-1.333 -0.736 -0.736 -1.333 0 -1.333 C
0.736 -1.333 1.333 -0.736 1.333 0 C
cp
f
GR
GS
[0.75 0 0 0.75 247.50577 115.56838] CT
0.851 0.325 0.098 RC
N
1.333 0 M
1.333 0.736 0.736 1.333 0 1.333 C
-0.736 1.333 -1.333 0.736 -1.333 0 C
-1.333 -0.736 -0.736 -1.333 0 -1.333 C
0.736 -1.333 1.333 -0.736 1.333 0 C
cp
f
GR
GS
[0.75 0 0 0.75 248.50234 115.56838] CT
0.851 0.325 0.098 RC
N
1.333 0 M
1.333 0.736 0.736 1.333 0 1.333 C
-0.736 1.333 -1.333 0.736 -1.333 0 C
-1.333 -0.736 -0.736 -1.333 0 -1.333 C
0.736 -1.333 1.333 -0.736 1.333 0 C
cp
f
GR
GS
[0.75 0 0 0.75 249.49889 115.56838] CT
0.851 0.325 0.098 RC
N
1.333 0 M
1.333 0.736 0.736 1.333 0 1.333 C
-0.736 1.333 -1.333 0.736 -1.333 0 C
-1.333 -0.736 -0.736 -1.333 0 -1.333 C
0.736 -1.333 1.333 -0.736 1.333 0 C
cp
f
GR
GS
[0.75 0 0 0.75 250.49547 115.56838] CT
0.851 0.325 0.098 RC
N
1.333 0 M
1.333 0.736 0.736 1.333 0 1.333 C
-0.736 1.333 -1.333 0.736 -1.333 0 C
-1.333 -0.736 -0.736 -1.333 0 -1.333 C
0.736 -1.333 1.333 -0.736 1.333 0 C
cp
f
GR
GS
[0.75 0 0 0.75 251.49204 115.56838] CT
0.851 0.325 0.098 RC
N
1.333 0 M
1.333 0.736 0.736 1.333 0 1.333 C
-0.736 1.333 -1.333 0.736 -1.333 0 C
-1.333 -0.736 -0.736 -1.333 0 -1.333 C
0.736 -1.333 1.333 -0.736 1.333 0 C
cp
f
GR
GS
[0.75 0 0 0.75 252.48862 115.56838] CT
0.851 0.325 0.098 RC
N
1.333 0 M
1.333 0.736 0.736 1.333 0 1.333 C
-0.736 1.333 -1.333 0.736 -1.333 0 C
-1.333 -0.736 -0.736 -1.333 0 -1.333 C
0.736 -1.333 1.333 -0.736 1.333 0 C
cp
f
GR
GS
[0.75 0 0 0.75 253.48517 115.56838] CT
0.851 0.325 0.098 RC
N
1.333 0 M
1.333 0.736 0.736 1.333 0 1.333 C
-0.736 1.333 -1.333 0.736 -1.333 0 C
-1.333 -0.736 -0.736 -1.333 0 -1.333 C
0.736 -1.333 1.333 -0.736 1.333 0 C
cp
f
GR
GS
[0.75 0 0 0.75 254.48174 115.56838] CT
0.851 0.325 0.098 RC
N
1.333 0 M
1.333 0.736 0.736 1.333 0 1.333 C
-0.736 1.333 -1.333 0.736 -1.333 0 C
-1.333 -0.736 -0.736 -1.333 0 -1.333 C
0.736 -1.333 1.333 -0.736 1.333 0 C
cp
f
GR
GS
[0.75 0 0 0.75 255.47832 115.56838] CT
0.851 0.325 0.098 RC
N
1.333 0 M
1.333 0.736 0.736 1.333 0 1.333 C
-0.736 1.333 -1.333 0.736 -1.333 0 C
-1.333 -0.736 -0.736 -1.333 0 -1.333 C
0.736 -1.333 1.333 -0.736 1.333 0 C
cp
f
GR
GS
[0.75 0 0 0.75 256.47487 115.56838] CT
0.851 0.325 0.098 RC
N
1.333 0 M
1.333 0.736 0.736 1.333 0 1.333 C
-0.736 1.333 -1.333 0.736 -1.333 0 C
-1.333 -0.736 -0.736 -1.333 0 -1.333 C
0.736 -1.333 1.333 -0.736 1.333 0 C
cp
f
GR
GS
[0.75 0 0 0.75 257.47144 115.56838] CT
0.851 0.325 0.098 RC
N
1.333 0 M
1.333 0.736 0.736 1.333 0 1.333 C
-0.736 1.333 -1.333 0.736 -1.333 0 C
-1.333 -0.736 -0.736 -1.333 0 -1.333 C
0.736 -1.333 1.333 -0.736 1.333 0 C
cp
f
GR
GS
[0.75 0 0 0.75 258.46802 115.56838] CT
0.851 0.325 0.098 RC
N
1.333 0 M
1.333 0.736 0.736 1.333 0 1.333 C
-0.736 1.333 -1.333 0.736 -1.333 0 C
-1.333 -0.736 -0.736 -1.333 0 -1.333 C
0.736 -1.333 1.333 -0.736 1.333 0 C
cp
f
GR
GS
[0.75 0 0 0.75 259.46457 115.56838] CT
0.851 0.325 0.098 RC
N
1.333 0 M
1.333 0.736 0.736 1.333 0 1.333 C
-0.736 1.333 -1.333 0.736 -1.333 0 C
-1.333 -0.736 -0.736 -1.333 0 -1.333 C
0.736 -1.333 1.333 -0.736 1.333 0 C
cp
f
GR
GS
[0.75 0 0 0.75 260.46114 115.56838] CT
0.851 0.325 0.098 RC
N
1.333 0 M
1.333 0.736 0.736 1.333 0 1.333 C
-0.736 1.333 -1.333 0.736 -1.333 0 C
-1.333 -0.736 -0.736 -1.333 0 -1.333 C
0.736 -1.333 1.333 -0.736 1.333 0 C
cp
f
GR
GS
[0.75 0 0 0.75 261.45774 115.56838] CT
0.851 0.325 0.098 RC
N
1.333 0 M
1.333 0.736 0.736 1.333 0 1.333 C
-0.736 1.333 -1.333 0.736 -1.333 0 C
-1.333 -0.736 -0.736 -1.333 0 -1.333 C
0.736 -1.333 1.333 -0.736 1.333 0 C
cp
f
GR
GS
[0.75 0 0 0.75 262.45427 115.56838] CT
0.851 0.325 0.098 RC
N
1.333 0 M
1.333 0.736 0.736 1.333 0 1.333 C
-0.736 1.333 -1.333 0.736 -1.333 0 C
-1.333 -0.736 -0.736 -1.333 0 -1.333 C
0.736 -1.333 1.333 -0.736 1.333 0 C
cp
f
GR
GS
[0.75 0 0 0.75 263.45084 115.56838] CT
0.851 0.325 0.098 RC
N
1.333 0 M
1.333 0.736 0.736 1.333 0 1.333 C
-0.736 1.333 -1.333 0.736 -1.333 0 C
-1.333 -0.736 -0.736 -1.333 0 -1.333 C
0.736 -1.333 1.333 -0.736 1.333 0 C
cp
f
GR
GS
[0.75 0 0 0.75 264.44744 115.56838] CT
0.851 0.325 0.098 RC
N
1.333 0 M
1.333 0.736 0.736 1.333 0 1.333 C
-0.736 1.333 -1.333 0.736 -1.333 0 C
-1.333 -0.736 -0.736 -1.333 0 -1.333 C
0.736 -1.333 1.333 -0.736 1.333 0 C
cp
f
GR
GS
[0.75 0 0 0.75 265.44397 115.56838] CT
0.851 0.325 0.098 RC
N
1.333 0 M
1.333 0.736 0.736 1.333 0 1.333 C
-0.736 1.333 -1.333 0.736 -1.333 0 C
-1.333 -0.736 -0.736 -1.333 0 -1.333 C
0.736 -1.333 1.333 -0.736 1.333 0 C
cp
f
GR
GS
[0.75 0 0 0.75 266.44057 115.56838] CT
0.851 0.325 0.098 RC
N
1.333 0 M
1.333 0.736 0.736 1.333 0 1.333 C
-0.736 1.333 -1.333 0.736 -1.333 0 C
-1.333 -0.736 -0.736 -1.333 0 -1.333 C
0.736 -1.333 1.333 -0.736 1.333 0 C
cp
f
GR
GS
[0.75 0 0 0.75 267.43714 115.56838] CT
0.851 0.325 0.098 RC
N
1.333 0 M
1.333 0.736 0.736 1.333 0 1.333 C
-0.736 1.333 -1.333 0.736 -1.333 0 C
-1.333 -0.736 -0.736 -1.333 0 -1.333 C
0.736 -1.333 1.333 -0.736 1.333 0 C
cp
f
GR
GS
[0.75 0 0 0.75 268.43367 115.56838] CT
0.851 0.325 0.098 RC
N
1.333 0 M
1.333 0.736 0.736 1.333 0 1.333 C
-0.736 1.333 -1.333 0.736 -1.333 0 C
-1.333 -0.736 -0.736 -1.333 0 -1.333 C
0.736 -1.333 1.333 -0.736 1.333 0 C
cp
f
GR
GS
[0.75 0 0 0.75 269.43027 115.56838] CT
0.851 0.325 0.098 RC
N
1.333 0 M
1.333 0.736 0.736 1.333 0 1.333 C
-0.736 1.333 -1.333 0.736 -1.333 0 C
-1.333 -0.736 -0.736 -1.333 0 -1.333 C
0.736 -1.333 1.333 -0.736 1.333 0 C
cp
f
GR
GS
[0.75 0 0 0.75 270.42684 115.56838] CT
0.851 0.325 0.098 RC
N
1.333 0 M
1.333 0.736 0.736 1.333 0 1.333 C
-0.736 1.333 -1.333 0.736 -1.333 0 C
-1.333 -0.736 -0.736 -1.333 0 -1.333 C
0.736 -1.333 1.333 -0.736 1.333 0 C
cp
f
GR
GS
[0.75 0 0 0.75 271.42337 115.56838] CT
0.851 0.325 0.098 RC
N
1.333 0 M
1.333 0.736 0.736 1.333 0 1.333 C
-0.736 1.333 -1.333 0.736 -1.333 0 C
-1.333 -0.736 -0.736 -1.333 0 -1.333 C
0.736 -1.333 1.333 -0.736 1.333 0 C
cp
f
GR
GS
[0.75 0 0 0.75 272.41997 115.56838] CT
0.851 0.325 0.098 RC
N
1.333 0 M
1.333 0.736 0.736 1.333 0 1.333 C
-0.736 1.333 -1.333 0.736 -1.333 0 C
-1.333 -0.736 -0.736 -1.333 0 -1.333 C
0.736 -1.333 1.333 -0.736 1.333 0 C
cp
f
GR
GS
[0.75 0 0 0.75 273.41654 115.56838] CT
0.851 0.325 0.098 RC
N
1.333 0 M
1.333 0.736 0.736 1.333 0 1.333 C
-0.736 1.333 -1.333 0.736 -1.333 0 C
-1.333 -0.736 -0.736 -1.333 0 -1.333 C
0.736 -1.333 1.333 -0.736 1.333 0 C
cp
f
GR
GS
[0.75 0 0 0.75 274.41307 115.56838] CT
0.851 0.325 0.098 RC
N
1.333 0 M
1.333 0.736 0.736 1.333 0 1.333 C
-0.736 1.333 -1.333 0.736 -1.333 0 C
-1.333 -0.736 -0.736 -1.333 0 -1.333 C
0.736 -1.333 1.333 -0.736 1.333 0 C
cp
f
GR
GS
[0.75 0 0 0.75 275.40967 115.56838] CT
0.851 0.325 0.098 RC
N
1.333 0 M
1.333 0.736 0.736 1.333 0 1.333 C
-0.736 1.333 -1.333 0.736 -1.333 0 C
-1.333 -0.736 -0.736 -1.333 0 -1.333 C
0.736 -1.333 1.333 -0.736 1.333 0 C
cp
f
GR
GS
[0.75 0 0 0.75 276.40624 115.56838] CT
0.851 0.325 0.098 RC
N
1.333 0 M
1.333 0.736 0.736 1.333 0 1.333 C
-0.736 1.333 -1.333 0.736 -1.333 0 C
-1.333 -0.736 -0.736 -1.333 0 -1.333 C
0.736 -1.333 1.333 -0.736 1.333 0 C
cp
f
GR
GS
[0.75 0 0 0.75 277.40279 115.56838] CT
0.851 0.325 0.098 RC
N
1.333 0 M
1.333 0.736 0.736 1.333 0 1.333 C
-0.736 1.333 -1.333 0.736 -1.333 0 C
-1.333 -0.736 -0.736 -1.333 0 -1.333 C
0.736 -1.333 1.333 -0.736 1.333 0 C
cp
f
GR
GS
[0.75 0 0 0.75 278.39937 115.56838] CT
0.851 0.325 0.098 RC
N
1.333 0 M
1.333 0.736 0.736 1.333 0 1.333 C
-0.736 1.333 -1.333 0.736 -1.333 0 C
-1.333 -0.736 -0.736 -1.333 0 -1.333 C
0.736 -1.333 1.333 -0.736 1.333 0 C
cp
f
GR
GS
[0.75 0 0 0.75 279.39594 115.56838] CT
0.851 0.325 0.098 RC
N
1.333 0 M
1.333 0.736 0.736 1.333 0 1.333 C
-0.736 1.333 -1.333 0.736 -1.333 0 C
-1.333 -0.736 -0.736 -1.333 0 -1.333 C
0.736 -1.333 1.333 -0.736 1.333 0 C
cp
f
GR
GS
[0.75 0 0 0.75 280.39252 115.56838] CT
0.851 0.325 0.098 RC
N
1.333 0 M
1.333 0.736 0.736 1.333 0 1.333 C
-0.736 1.333 -1.333 0.736 -1.333 0 C
-1.333 -0.736 -0.736 -1.333 0 -1.333 C
0.736 -1.333 1.333 -0.736 1.333 0 C
cp
f
GR
GS
[0.75 0 0 0.75 281.38907 115.56838] CT
0.851 0.325 0.098 RC
N
1.333 0 M
1.333 0.736 0.736 1.333 0 1.333 C
-0.736 1.333 -1.333 0.736 -1.333 0 C
-1.333 -0.736 -0.736 -1.333 0 -1.333 C
0.736 -1.333 1.333 -0.736 1.333 0 C
cp
f
GR
GS
[0.75 0 0 0.75 282.38564 93.49274] CT
0.851 0.325 0.098 RC
N
1.333 0 M
1.333 0.736 0.736 1.333 0 1.333 C
-0.736 1.333 -1.333 0.736 -1.333 0 C
-1.333 -0.736 -0.736 -1.333 0 -1.333 C
0.736 -1.333 1.333 -0.736 1.333 0 C
cp
f
GR
GS
[0.75 0 0 0.75 283.38224 93.49274] CT
0.851 0.325 0.098 RC
N
1.333 0 M
1.333 0.736 0.736 1.333 0 1.333 C
-0.736 1.333 -1.333 0.736 -1.333 0 C
-1.333 -0.736 -0.736 -1.333 0 -1.333 C
0.736 -1.333 1.333 -0.736 1.333 0 C
cp
f
GR
GS
[0.75 0 0 0.75 284.37877 93.49274] CT
0.851 0.325 0.098 RC
N
1.333 0 M
1.333 0.736 0.736 1.333 0 1.333 C
-0.736 1.333 -1.333 0.736 -1.333 0 C
-1.333 -0.736 -0.736 -1.333 0 -1.333 C
0.736 -1.333 1.333 -0.736 1.333 0 C
cp
f
GR
GS
[0.75 0 0 0.75 285.37534 93.49274] CT
0.851 0.325 0.098 RC
N
1.333 0 M
1.333 0.736 0.736 1.333 0 1.333 C
-0.736 1.333 -1.333 0.736 -1.333 0 C
-1.333 -0.736 -0.736 -1.333 0 -1.333 C
0.736 -1.333 1.333 -0.736 1.333 0 C
cp
f
GR
GS
[0.75 0 0 0.75 286.37194 93.49274] CT
0.851 0.325 0.098 RC
N
1.333 0 M
1.333 0.736 0.736 1.333 0 1.333 C
-0.736 1.333 -1.333 0.736 -1.333 0 C
-1.333 -0.736 -0.736 -1.333 0 -1.333 C
0.736 -1.333 1.333 -0.736 1.333 0 C
cp
f
GR
GS
[0.75 0 0 0.75 287.36847 93.49274] CT
0.851 0.325 0.098 RC
N
1.333 0 M
1.333 0.736 0.736 1.333 0 1.333 C
-0.736 1.333 -1.333 0.736 -1.333 0 C
-1.333 -0.736 -0.736 -1.333 0 -1.333 C
0.736 -1.333 1.333 -0.736 1.333 0 C
cp
f
GR
GS
[0.75 0 0 0.75 288.36504 93.49274] CT
0.851 0.325 0.098 RC
N
1.333 0 M
1.333 0.736 0.736 1.333 0 1.333 C
-0.736 1.333 -1.333 0.736 -1.333 0 C
-1.333 -0.736 -0.736 -1.333 0 -1.333 C
0.736 -1.333 1.333 -0.736 1.333 0 C
cp
f
GR
GS
[0.75 0 0 0.75 289.36164 93.49274] CT
0.851 0.325 0.098 RC
N
1.333 0 M
1.333 0.736 0.736 1.333 0 1.333 C
-0.736 1.333 -1.333 0.736 -1.333 0 C
-1.333 -0.736 -0.736 -1.333 0 -1.333 C
0.736 -1.333 1.333 -0.736 1.333 0 C
cp
f
GR
GS
[0.75 0 0 0.75 290.35817 52.58477] CT
0.851 0.325 0.098 RC
N
1.333 0 M
1.333 0.736 0.736 1.333 0 1.333 C
-0.736 1.333 -1.333 0.736 -1.333 0 C
-1.333 -0.736 -0.736 -1.333 0 -1.333 C
0.736 -1.333 1.333 -0.736 1.333 0 C
cp
f
GR
GS
[0.75 0 0 0.75 291.35474 52.58477] CT
0.851 0.325 0.098 RC
N
1.333 0 M
1.333 0.736 0.736 1.333 0 1.333 C
-0.736 1.333 -1.333 0.736 -1.333 0 C
-1.333 -0.736 -0.736 -1.333 0 -1.333 C
0.736 -1.333 1.333 -0.736 1.333 0 C
cp
f
GR
GS
[0.75 0 0 0.75 292.35134 52.58477] CT
0.851 0.325 0.098 RC
N
1.333 0 M
1.333 0.736 0.736 1.333 0 1.333 C
-0.736 1.333 -1.333 0.736 -1.333 0 C
-1.333 -0.736 -0.736 -1.333 0 -1.333 C
0.736 -1.333 1.333 -0.736 1.333 0 C
cp
f
GR
GS
[0.75 0 0 0.75 293.34787 52.58477] CT
0.851 0.325 0.098 RC
N
1.333 0 M
1.333 0.736 0.736 1.333 0 1.333 C
-0.736 1.333 -1.333 0.736 -1.333 0 C
-1.333 -0.736 -0.736 -1.333 0 -1.333 C
0.736 -1.333 1.333 -0.736 1.333 0 C
cp
f
GR
GS
[0.75 0 0 0.75 294.34444 52.58477] CT
0.851 0.325 0.098 RC
N
1.333 0 M
1.333 0.736 0.736 1.333 0 1.333 C
-0.736 1.333 -1.333 0.736 -1.333 0 C
-1.333 -0.736 -0.736 -1.333 0 -1.333 C
0.736 -1.333 1.333 -0.736 1.333 0 C
cp
f
GR
GS
[0.75 0 0 0.75 295.34104 52.58477] CT
0.851 0.325 0.098 RC
N
1.333 0 M
1.333 0.736 0.736 1.333 0 1.333 C
-0.736 1.333 -1.333 0.736 -1.333 0 C
-1.333 -0.736 -0.736 -1.333 0 -1.333 C
0.736 -1.333 1.333 -0.736 1.333 0 C
cp
f
GR
GS
[0.75 0 0 0.75 296.33757 52.58477] CT
0.851 0.325 0.098 RC
N
1.333 0 M
1.333 0.736 0.736 1.333 0 1.333 C
-0.736 1.333 -1.333 0.736 -1.333 0 C
-1.333 -0.736 -0.736 -1.333 0 -1.333 C
0.736 -1.333 1.333 -0.736 1.333 0 C
cp
f
GR
GS
[0.75 0 0 0.75 297.33417 52.58477] CT
0.851 0.325 0.098 RC
N
1.333 0 M
1.333 0.736 0.736 1.333 0 1.333 C
-0.736 1.333 -1.333 0.736 -1.333 0 C
-1.333 -0.736 -0.736 -1.333 0 -1.333 C
0.736 -1.333 1.333 -0.736 1.333 0 C
cp
f
GR
GS
[0.75 0 0 0.75 298.33074 52.58477] CT
0.851 0.325 0.098 RC
N
1.333 0 M
1.333 0.736 0.736 1.333 0 1.333 C
-0.736 1.333 -1.333 0.736 -1.333 0 C
-1.333 -0.736 -0.736 -1.333 0 -1.333 C
0.736 -1.333 1.333 -0.736 1.333 0 C
cp
f
GR
GS
[0.75 0 0 0.75 299.32727 52.58477] CT
0.851 0.325 0.098 RC
N
1.333 0 M
1.333 0.736 0.736 1.333 0 1.333 C
-0.736 1.333 -1.333 0.736 -1.333 0 C
-1.333 -0.736 -0.736 -1.333 0 -1.333 C
0.736 -1.333 1.333 -0.736 1.333 0 C
cp
f
GR
GS
[0.75 0 0 0.75 300.32387 52.58477] CT
0.851 0.325 0.098 RC
N
1.333 0 M
1.333 0.736 0.736 1.333 0 1.333 C
-0.736 1.333 -1.333 0.736 -1.333 0 C
-1.333 -0.736 -0.736 -1.333 0 -1.333 C
0.736 -1.333 1.333 -0.736 1.333 0 C
cp
f
GR
GS
[0.75 0 0 0.75 301.32044 52.58477] CT
0.851 0.325 0.098 RC
N
1.333 0 M
1.333 0.736 0.736 1.333 0 1.333 C
-0.736 1.333 -1.333 0.736 -1.333 0 C
-1.333 -0.736 -0.736 -1.333 0 -1.333 C
0.736 -1.333 1.333 -0.736 1.333 0 C
cp
f
GR
GS
[0.75 0 0 0.75 302.31697 52.58477] CT
0.851 0.325 0.098 RC
N
1.333 0 M
1.333 0.736 0.736 1.333 0 1.333 C
-0.736 1.333 -1.333 0.736 -1.333 0 C
-1.333 -0.736 -0.736 -1.333 0 -1.333 C
0.736 -1.333 1.333 -0.736 1.333 0 C
cp
f
GR
GS
[0.75 0 0 0.75 303.31357 52.58477] CT
0.851 0.325 0.098 RC
N
1.333 0 M
1.333 0.736 0.736 1.333 0 1.333 C
-0.736 1.333 -1.333 0.736 -1.333 0 C
-1.333 -0.736 -0.736 -1.333 0 -1.333 C
0.736 -1.333 1.333 -0.736 1.333 0 C
cp
f
GR
GS
[0.75 0 0 0.75 304.31014 52.58477] CT
0.851 0.325 0.098 RC
N
1.333 0 M
1.333 0.736 0.736 1.333 0 1.333 C
-0.736 1.333 -1.333 0.736 -1.333 0 C
-1.333 -0.736 -0.736 -1.333 0 -1.333 C
0.736 -1.333 1.333 -0.736 1.333 0 C
cp
f
GR
GS
[0.75 0 0 0.75 305.30667 52.58477] CT
0.851 0.325 0.098 RC
N
1.333 0 M
1.333 0.736 0.736 1.333 0 1.333 C
-0.736 1.333 -1.333 0.736 -1.333 0 C
-1.333 -0.736 -0.736 -1.333 0 -1.333 C
0.736 -1.333 1.333 -0.736 1.333 0 C
cp
f
GR
GS
[0.75 0 0 0.75 306.30327 52.58477] CT
0.851 0.325 0.098 RC
N
1.333 0 M
1.333 0.736 0.736 1.333 0 1.333 C
-0.736 1.333 -1.333 0.736 -1.333 0 C
-1.333 -0.736 -0.736 -1.333 0 -1.333 C
0.736 -1.333 1.333 -0.736 1.333 0 C
cp
f
GR
GS
[0.75 0 0 0.75 307.29984 52.58477] CT
0.851 0.325 0.098 RC
N
1.333 0 M
1.333 0.736 0.736 1.333 0 1.333 C
-0.736 1.333 -1.333 0.736 -1.333 0 C
-1.333 -0.736 -0.736 -1.333 0 -1.333 C
0.736 -1.333 1.333 -0.736 1.333 0 C
cp
f
GR
GS
[0.75 0 0 0.75 308.29642 52.58477] CT
0.851 0.325 0.098 RC
N
1.333 0 M
1.333 0.736 0.736 1.333 0 1.333 C
-0.736 1.333 -1.333 0.736 -1.333 0 C
-1.333 -0.736 -0.736 -1.333 0 -1.333 C
0.736 -1.333 1.333 -0.736 1.333 0 C
cp
f
GR
GS
[0.75 0 0 0.75 309.29297 52.58477] CT
0.851 0.325 0.098 RC
N
1.333 0 M
1.333 0.736 0.736 1.333 0 1.333 C
-0.736 1.333 -1.333 0.736 -1.333 0 C
-1.333 -0.736 -0.736 -1.333 0 -1.333 C
0.736 -1.333 1.333 -0.736 1.333 0 C
cp
f
GR
GS
[0.75 0 0 0.75 310.28954 52.58477] CT
0.851 0.325 0.098 RC
N
1.333 0 M
1.333 0.736 0.736 1.333 0 1.333 C
-0.736 1.333 -1.333 0.736 -1.333 0 C
-1.333 -0.736 -0.736 -1.333 0 -1.333 C
0.736 -1.333 1.333 -0.736 1.333 0 C
cp
f
GR
GS
[0.75 0 0 0.75 311.28612 52.58477] CT
0.851 0.325 0.098 RC
N
1.333 0 M
1.333 0.736 0.736 1.333 0 1.333 C
-0.736 1.333 -1.333 0.736 -1.333 0 C
-1.333 -0.736 -0.736 -1.333 0 -1.333 C
0.736 -1.333 1.333 -0.736 1.333 0 C
cp
f
GR
GS
[0.75 0 0 0.75 312.28267 52.58477] CT
0.851 0.325 0.098 RC
N
1.333 0 M
1.333 0.736 0.736 1.333 0 1.333 C
-0.736 1.333 -1.333 0.736 -1.333 0 C
-1.333 -0.736 -0.736 -1.333 0 -1.333 C
0.736 -1.333 1.333 -0.736 1.333 0 C
cp
f
GR
GS
[0.75 0 0 0.75 313.27924 52.58477] CT
0.851 0.325 0.098 RC
N
1.333 0 M
1.333 0.736 0.736 1.333 0 1.333 C
-0.736 1.333 -1.333 0.736 -1.333 0 C
-1.333 -0.736 -0.736 -1.333 0 -1.333 C
0.736 -1.333 1.333 -0.736 1.333 0 C
cp
f
GR
GS
[0.75 0 0 0.75 314.27584 52.58477] CT
0.851 0.325 0.098 RC
N
1.333 0 M
1.333 0.736 0.736 1.333 0 1.333 C
-0.736 1.333 -1.333 0.736 -1.333 0 C
-1.333 -0.736 -0.736 -1.333 0 -1.333 C
0.736 -1.333 1.333 -0.736 1.333 0 C
cp
f
GR
GS
[0.75 0 0 0.75 315.27237 52.58477] CT
0.851 0.325 0.098 RC
N
1.333 0 M
1.333 0.736 0.736 1.333 0 1.333 C
-0.736 1.333 -1.333 0.736 -1.333 0 C
-1.333 -0.736 -0.736 -1.333 0 -1.333 C
0.736 -1.333 1.333 -0.736 1.333 0 C
cp
f
GR
GS
[0.75 0 0 0.75 316.26894 52.58477] CT
0.851 0.325 0.098 RC
N
1.333 0 M
1.333 0.736 0.736 1.333 0 1.333 C
-0.736 1.333 -1.333 0.736 -1.333 0 C
-1.333 -0.736 -0.736 -1.333 0 -1.333 C
0.736 -1.333 1.333 -0.736 1.333 0 C
cp
f
GR
GS
[0.75 0 0 0.75 317.26554 52.58477] CT
0.851 0.325 0.098 RC
N
1.333 0 M
1.333 0.736 0.736 1.333 0 1.333 C
-0.736 1.333 -1.333 0.736 -1.333 0 C
-1.333 -0.736 -0.736 -1.333 0 -1.333 C
0.736 -1.333 1.333 -0.736 1.333 0 C
cp
f
GR
GS
[0.75 0 0 0.75 318.26207 52.58477] CT
0.851 0.325 0.098 RC
N
1.333 0 M
1.333 0.736 0.736 1.333 0 1.333 C
-0.736 1.333 -1.333 0.736 -1.333 0 C
-1.333 -0.736 -0.736 -1.333 0 -1.333 C
0.736 -1.333 1.333 -0.736 1.333 0 C
cp
f
GR
GS
[0.75 0 0 0.75 319.25864 52.58477] CT
0.851 0.325 0.098 RC
N
1.333 0 M
1.333 0.736 0.736 1.333 0 1.333 C
-0.736 1.333 -1.333 0.736 -1.333 0 C
-1.333 -0.736 -0.736 -1.333 0 -1.333 C
0.736 -1.333 1.333 -0.736 1.333 0 C
cp
f
GR
GS
[0.75 0 0 0.75 320.25524 52.58477] CT
0.851 0.325 0.098 RC
N
1.333 0 M
1.333 0.736 0.736 1.333 0 1.333 C
-0.736 1.333 -1.333 0.736 -1.333 0 C
-1.333 -0.736 -0.736 -1.333 0 -1.333 C
0.736 -1.333 1.333 -0.736 1.333 0 C
cp
f
GR
GS
[0.75 0 0 0.75 321.25177 52.58477] CT
0.851 0.325 0.098 RC
N
1.333 0 M
1.333 0.736 0.736 1.333 0 1.333 C
-0.736 1.333 -1.333 0.736 -1.333 0 C
-1.333 -0.736 -0.736 -1.333 0 -1.333 C
0.736 -1.333 1.333 -0.736 1.333 0 C
cp
f
GR
GS
[0.75 0 0 0.75 322.24834 52.58477] CT
0.851 0.325 0.098 RC
N
1.333 0 M
1.333 0.736 0.736 1.333 0 1.333 C
-0.736 1.333 -1.333 0.736 -1.333 0 C
-1.333 -0.736 -0.736 -1.333 0 -1.333 C
0.736 -1.333 1.333 -0.736 1.333 0 C
cp
f
GR
GS
[0.75 0 0 0.75 323.24494 52.58477] CT
0.851 0.325 0.098 RC
N
1.333 0 M
1.333 0.736 0.736 1.333 0 1.333 C
-0.736 1.333 -1.333 0.736 -1.333 0 C
-1.333 -0.736 -0.736 -1.333 0 -1.333 C
0.736 -1.333 1.333 -0.736 1.333 0 C
cp
f
GR
GS
[0.75 0 0 0.75 324.24147 52.58477] CT
0.851 0.325 0.098 RC
N
1.333 0 M
1.333 0.736 0.736 1.333 0 1.333 C
-0.736 1.333 -1.333 0.736 -1.333 0 C
-1.333 -0.736 -0.736 -1.333 0 -1.333 C
0.736 -1.333 1.333 -0.736 1.333 0 C
cp
f
GR
GS
[0.75 0 0 0.75 325.23807 52.58477] CT
0.851 0.325 0.098 RC
N
1.333 0 M
1.333 0.736 0.736 1.333 0 1.333 C
-0.736 1.333 -1.333 0.736 -1.333 0 C
-1.333 -0.736 -0.736 -1.333 0 -1.333 C
0.736 -1.333 1.333 -0.736 1.333 0 C
cp
f
GR
GS
[0.75 0 0 0.75 326.23464 52.58477] CT
0.851 0.325 0.098 RC
N
1.333 0 M
1.333 0.736 0.736 1.333 0 1.333 C
-0.736 1.333 -1.333 0.736 -1.333 0 C
-1.333 -0.736 -0.736 -1.333 0 -1.333 C
0.736 -1.333 1.333 -0.736 1.333 0 C
cp
f
GR
GS
[0.75 0 0 0.75 327.23117 52.58477] CT
0.851 0.325 0.098 RC
N
1.333 0 M
1.333 0.736 0.736 1.333 0 1.333 C
-0.736 1.333 -1.333 0.736 -1.333 0 C
-1.333 -0.736 -0.736 -1.333 0 -1.333 C
0.736 -1.333 1.333 -0.736 1.333 0 C
cp
f
GR
GS
[0.75 0 0 0.75 328.22777 52.58477] CT
0.851 0.325 0.098 RC
N
1.333 0 M
1.333 0.736 0.736 1.333 0 1.333 C
-0.736 1.333 -1.333 0.736 -1.333 0 C
-1.333 -0.736 -0.736 -1.333 0 -1.333 C
0.736 -1.333 1.333 -0.736 1.333 0 C
cp
f
GR
GS
[0.75 0 0 0.75 329.22434 52.58477] CT
0.851 0.325 0.098 RC
N
1.333 0 M
1.333 0.736 0.736 1.333 0 1.333 C
-0.736 1.333 -1.333 0.736 -1.333 0 C
-1.333 -0.736 -0.736 -1.333 0 -1.333 C
0.736 -1.333 1.333 -0.736 1.333 0 C
cp
f
GR
GS
[0.75 0 0 0.75 330.22087 52.58477] CT
0.851 0.325 0.098 RC
N
1.333 0 M
1.333 0.736 0.736 1.333 0 1.333 C
-0.736 1.333 -1.333 0.736 -1.333 0 C
-1.333 -0.736 -0.736 -1.333 0 -1.333 C
0.736 -1.333 1.333 -0.736 1.333 0 C
cp
f
GR
GS
[0.75 0 0 0.75 331.21747 52.58477] CT
0.851 0.325 0.098 RC
N
1.333 0 M
1.333 0.736 0.736 1.333 0 1.333 C
-0.736 1.333 -1.333 0.736 -1.333 0 C
-1.333 -0.736 -0.736 -1.333 0 -1.333 C
0.736 -1.333 1.333 -0.736 1.333 0 C
cp
f
GR
GS
[0.75 0 0 0.75 332.21404 52.58477] CT
0.851 0.325 0.098 RC
N
1.333 0 M
1.333 0.736 0.736 1.333 0 1.333 C
-0.736 1.333 -1.333 0.736 -1.333 0 C
-1.333 -0.736 -0.736 -1.333 0 -1.333 C
0.736 -1.333 1.333 -0.736 1.333 0 C
cp
f
GR
GS
[0.75 0 0 0.75 333.21062 52.58477] CT
0.851 0.325 0.098 RC
N
1.333 0 M
1.333 0.736 0.736 1.333 0 1.333 C
-0.736 1.333 -1.333 0.736 -1.333 0 C
-1.333 -0.736 -0.736 -1.333 0 -1.333 C
0.736 -1.333 1.333 -0.736 1.333 0 C
cp
f
GR
GS
[0.75 0 0 0.75 334.20717 52.58477] CT
0.851 0.325 0.098 RC
N
1.333 0 M
1.333 0.736 0.736 1.333 0 1.333 C
-0.736 1.333 -1.333 0.736 -1.333 0 C
-1.333 -0.736 -0.736 -1.333 0 -1.333 C
0.736 -1.333 1.333 -0.736 1.333 0 C
cp
f
GR
GS
[0.75 0 0 0.75 335.20374 29.84448] CT
0.851 0.325 0.098 RC
N
1.333 0 M
1.333 0.736 0.736 1.333 0 1.333 C
-0.736 1.333 -1.333 0.736 -1.333 0 C
-1.333 -0.736 -0.736 -1.333 0 -1.333 C
0.736 -1.333 1.333 -0.736 1.333 0 C
cp
f
GR
GS
[0.75 0 0 0.75 336.20032 29.84448] CT
0.851 0.325 0.098 RC
N
1.333 0 M
1.333 0.736 0.736 1.333 0 1.333 C
-0.736 1.333 -1.333 0.736 -1.333 0 C
-1.333 -0.736 -0.736 -1.333 0 -1.333 C
0.736 -1.333 1.333 -0.736 1.333 0 C
cp
f
GR
GS
[0.75 0 0 0.75 337.19687 29.84448] CT
0.851 0.325 0.098 RC
N
1.333 0 M
1.333 0.736 0.736 1.333 0 1.333 C
-0.736 1.333 -1.333 0.736 -1.333 0 C
-1.333 -0.736 -0.736 -1.333 0 -1.333 C
0.736 -1.333 1.333 -0.736 1.333 0 C
cp
f
GR
GS
[0.75 0 0 0.75 338.19344 29.84448] CT
0.851 0.325 0.098 RC
N
1.333 0 M
1.333 0.736 0.736 1.333 0 1.333 C
-0.736 1.333 -1.333 0.736 -1.333 0 C
-1.333 -0.736 -0.736 -1.333 0 -1.333 C
0.736 -1.333 1.333 -0.736 1.333 0 C
cp
f
GR
GS
[0.75 0 0 0.75 339.19002 29.84448] CT
0.851 0.325 0.098 RC
N
1.333 0 M
1.333 0.736 0.736 1.333 0 1.333 C
-0.736 1.333 -1.333 0.736 -1.333 0 C
-1.333 -0.736 -0.736 -1.333 0 -1.333 C
0.736 -1.333 1.333 -0.736 1.333 0 C
cp
f
GR
GS
[0.75 0 0 0.75 340.18657 29.84448] CT
0.851 0.325 0.098 RC
N
1.333 0 M
1.333 0.736 0.736 1.333 0 1.333 C
-0.736 1.333 -1.333 0.736 -1.333 0 C
-1.333 -0.736 -0.736 -1.333 0 -1.333 C
0.736 -1.333 1.333 -0.736 1.333 0 C
cp
f
GR
GS
[0.75 0 0 0.75 341.18314 29.84448] CT
0.851 0.325 0.098 RC
N
1.333 0 M
1.333 0.736 0.736 1.333 0 1.333 C
-0.736 1.333 -1.333 0.736 -1.333 0 C
-1.333 -0.736 -0.736 -1.333 0 -1.333 C
0.736 -1.333 1.333 -0.736 1.333 0 C
cp
f
GR
GS
[0.75 0 0 0.75 342.17972 29.84448] CT
0.851 0.325 0.098 RC
N
1.333 0 M
1.333 0.736 0.736 1.333 0 1.333 C
-0.736 1.333 -1.333 0.736 -1.333 0 C
-1.333 -0.736 -0.736 -1.333 0 -1.333 C
0.736 -1.333 1.333 -0.736 1.333 0 C
cp
f
GR
GS
[0.75 0 0 0.75 0 0] CT
1 0 1 RC
1 LJ
0.667 LW
N
72.957 280.194 M
98.146 276.225 L
175.324 248.007 L
247.632 216.451 L
300.154 186.821 L
351.972 154.091 L
381.3 124.657 L
416.466 70.113 L
451.663 39.793 L
454.546 30.966 L
S
GR
GS
[0.75 0 0 0.75 0 0] CT
1 0 1 RC
1 LJ
N
94 276.5 M
103 276.5 L
S
GR
GS
[0.75 0 0 0.75 0 0] CT
1 0 1 RC
1 LJ
N
98.5 281 M
98.5 272 L
S
GR
GS
[0.75 0 0 0.75 0 0] CT
1 0 1 RC
1 LJ
N
95 280 M
102 273 L
S
GR
GS
[0.75 0 0 0.75 0 0] CT
1 0 1 RC
1 LJ
N
95 273 M
102 280 L
S
GR
GS
[0.75 0 0 0.75 0 0] CT
1 0 1 RC
1 LJ
N
171 248.5 M
180 248.5 L
S
GR
GS
[0.75 0 0 0.75 0 0] CT
1 0 1 RC
1 LJ
N
175.5 253 M
175.5 244 L
S
GR
GS
[0.75 0 0 0.75 0 0] CT
1 0 1 RC
1 LJ
N
172 252 M
179 245 L
S
GR
GS
[0.75 0 0 0.75 0 0] CT
1 0 1 RC
1 LJ
N
172 245 M
179 252 L
S
GR
GS
[0.75 0 0 0.75 0 0] CT
1 0 1 RC
1 LJ
N
243 216.5 M
252 216.5 L
S
GR
GS
[0.75 0 0 0.75 0 0] CT
1 0 1 RC
1 LJ
N
247.5 221 M
247.5 212 L
S
GR
GS
[0.75 0 0 0.75 0 0] CT
1 0 1 RC
1 LJ
N
244 220 M
251 213 L
S
GR
GS
[0.75 0 0 0.75 0 0] CT
1 0 1 RC
1 LJ
N
244 213 M
251 220 L
S
GR
GS
[0.75 0 0 0.75 0 0] CT
1 0 1 RC
1 LJ
N
296 186.5 M
305 186.5 L
S
GR
GS
[0.75 0 0 0.75 0 0] CT
1 0 1 RC
1 LJ
N
300.5 191 M
300.5 182 L
S
GR
GS
[0.75 0 0 0.75 0 0] CT
1 0 1 RC
1 LJ
N
297 190 M
304 183 L
S
GR
GS
[0.75 0 0 0.75 0 0] CT
1 0 1 RC
1 LJ
N
297 183 M
304 190 L
S
GR
GS
[0.75 0 0 0.75 0 0] CT
1 0 1 RC
1 LJ
N
347 154.5 M
356 154.5 L
S
GR
GS
[0.75 0 0 0.75 0 0] CT
1 0 1 RC
1 LJ
N
351.5 159 M
351.5 150 L
S
GR
GS
[0.75 0 0 0.75 0 0] CT
1 0 1 RC
1 LJ
N
348 158 M
355 151 L
S
GR
GS
[0.75 0 0 0.75 0 0] CT
1 0 1 RC
1 LJ
N
348 151 M
355 158 L
S
GR
GS
[0.75 0 0 0.75 0 0] CT
1 0 1 RC
1 LJ
N
377 124.5 M
386 124.5 L
S
GR
GS
[0.75 0 0 0.75 0 0] CT
1 0 1 RC
1 LJ
N
381.5 129 M
381.5 120 L
S
GR
GS
[0.75 0 0 0.75 0 0] CT
1 0 1 RC
1 LJ
N
378 128 M
385 121 L
S
GR
GS
[0.75 0 0 0.75 0 0] CT
1 0 1 RC
1 LJ
N
378 121 M
385 128 L
S
GR
GS
[0.75 0 0 0.75 0 0] CT
1 0 1 RC
1 LJ
N
412 70.5 M
421 70.5 L
S
GR
GS
[0.75 0 0 0.75 0 0] CT
1 0 1 RC
1 LJ
N
416.5 75 M
416.5 66 L
S
GR
GS
[0.75 0 0 0.75 0 0] CT
1 0 1 RC
1 LJ
N
413 74 M
420 67 L
S
GR
GS
[0.75 0 0 0.75 0 0] CT
1 0 1 RC
1 LJ
N
413 67 M
420 74 L
S
GR
GS
[0.75 0 0 0.75 0 0] CT
1 0 1 RC
1 LJ
N
447 39.5 M
456 39.5 L
S
GR
GS
[0.75 0 0 0.75 0 0] CT
1 0 1 RC
1 LJ
N
451.5 44 M
451.5 35 L
S
GR
GS
[0.75 0 0 0.75 0 0] CT
1 0 1 RC
1 LJ
N
448 43 M
455 36 L
S
GR
GS
[0.75 0 0 0.75 0 0] CT
1 0 1 RC
1 LJ
N
448 36 M
455 43 L
S
GR
GS
[0.75 0 0 0.75 0 0] CT
1 GC
N
348 354 M
348 282 L
494 282 L
494 354 L
cp
f
GR
GS
[0.75 0 0 0.75 300 219.57477] CT
/Helvetica 12 F
GS
[1 0 0 1 0 0] CT
0 5 moveto 
1 -1 scale
(Data) t 
GR
GR
GS
[0.75 0 0 0.75 0 0] CT
0 0.447 0.741 RC
1 LJ
0.667 LW
N
356 292.766 M
396 292.766 L
S
GR
GS
[0.75 0 0 0.75 300 232.19158] CT
/Helvetica 12 F
GS
[1 0 0 1 0 0] CT
0 5 moveto 
1 -1 scale
(Segmented) t 
GR
GR
GS
[0.75 0 0 0.75 282 232.19158] CT
0.851 0.325 0.098 RC
N
1.333 0 M
1.333 0.736 0.736 1.333 0 1.333 C
-0.736 1.333 -1.333 0.736 -1.333 0 C
-1.333 -0.736 -0.736 -1.333 0 -1.333 C
0.736 -1.333 1.333 -0.736 1.333 0 C
cp
f
GR
GS
[0.75 0 0 0.75 300 244.80842] CT
/Helvetica 12 F
GS
[1 0 0 1 0 0] CT
0 5 moveto 
1 -1 scale
(Midpoint-capture) t 
GR
GR
GS
[0.75 0 0 0.75 0 0] CT
1 0 0 RC
1 LJ
N
379.5 326.5 M
378.736 324.149 L
376.736 322.696 L
374.264 322.696 L
372.264 324.149 L
371.5 326.5 L
372.264 328.851 L
374.264 330.304 L
376.736 330.304 L
378.736 328.851 L
cp
S
GR
GS
[0.75 0 0 0.75 300 257.42523] CT
/Helvetica 12 F
GS
[1 0 0 1 0 0] CT
0 5 moveto 
1 -1 scale
(Midpoint-capture) t 
GR
GR
GS
[0.75 0 0 0.75 0 0] CT
1 0 1 RC
1 LJ
0.667 LW
N
356 343.234 M
396 343.234 L
S
GR
GS
[0.75 0 0 0.75 0 0] CT
1 0 1 RC
1 LJ
N
371 343.5 M
380 343.5 L
S
GR
GS
[0.75 0 0 0.75 0 0] CT
1 0 1 RC
1 LJ
N
375.5 348 M
375.5 339 L
S
GR
GS
[0.75 0 0 0.75 0 0] CT
1 0 1 RC
1 LJ
N
372 347 M
379 340 L
S
GR
GS
[0.75 0 0 0.75 0 0] CT
1 0 1 RC
1 LJ
N
372 340 M
379 347 L
S
GR
GS
[0.75 0 0 0.75 0 0] CT
0.149 GC
10.0 ML
0.667 LW
N
348 354 M
348 282 L
494 282 L
494 354 L
cp
S
GR
%%Trailer
%%Pages: 1
%%EOF
