%!PS-Adobe-3.0 EPSF-3.0
%%Creator: (MATLAB, The Mathworks, Inc. Version 8.6.0.267246 \(R2015b\). Operating System: Windows 8)
%%Title: C:/Users/ZNS/Dropbox/Dissertation/Figures/SMFS/PersistenceGammaExample.eps
%%CreationDate: 2016-02-02T10:58:57
%%Pages: (atend)
%%BoundingBox: 0 0 420 224
%%LanguageLevel: 2
%%EndComments
%%BeginProlog
%%BeginResource: procset (Apache XML Graphics Std ProcSet) 1.2 0
%%Version: 1.2 0
%%Copyright: (Copyright 2001-2003,2010 The Apache Software Foundation. License terms: http://www.apache.org/licenses/LICENSE-2.0)
/bd{bind def}bind def
/ld{load def}bd
/GR/grestore ld
/M/moveto ld
/LJ/setlinejoin ld
/C/curveto ld
/f/fill ld
/LW/setlinewidth ld
/GC/setgray ld
/t/show ld
/N/newpath ld
/CT/concat ld
/cp/closepath ld
/S/stroke ld
/L/lineto ld
/CC/setcmykcolor ld
/A/ashow ld
/GS/gsave ld
/RC/setrgbcolor ld
/RM/rmoveto ld
/ML/setmiterlimit ld
/re {4 2 roll M
1 index 0 rlineto
0 exch rlineto
neg 0 rlineto
cp } bd
/_ctm matrix def
/_tm matrix def
/BT { _ctm currentmatrix pop matrix _tm copy pop 0 0 moveto } bd
/ET { _ctm setmatrix } bd
/iTm { _ctm setmatrix _tm concat } bd
/Tm { _tm astore pop iTm 0 0 moveto } bd
/ux 0.0 def
/uy 0.0 def
/F {
  /Tp exch def
  /Tf exch def
  Tf findfont Tp scalefont setfont
  /cf Tf def  /cs Tp def
} bd
/ULS {currentpoint /uy exch def /ux exch def} bd
/ULE {
  /Tcx currentpoint pop def
  gsave
  newpath
  cf findfont cs scalefont dup
  /FontMatrix get 0 get /Ts exch def /FontInfo get dup
  /UnderlinePosition get Ts mul /To exch def
  /UnderlineThickness get Ts mul /Tt exch def
  ux uy To add moveto  Tcx uy To add lineto
  Tt setlinewidth stroke
  grestore
} bd
/OLE {
  /Tcx currentpoint pop def
  gsave
  newpath
  cf findfont cs scalefont dup
  /FontMatrix get 0 get /Ts exch def /FontInfo get dup
  /UnderlinePosition get Ts mul /To exch def
  /UnderlineThickness get Ts mul /Tt exch def
  ux uy To add cs add moveto Tcx uy To add cs add lineto
  Tt setlinewidth stroke
  grestore
} bd
/SOE {
  /Tcx currentpoint pop def
  gsave
  newpath
  cf findfont cs scalefont dup
  /FontMatrix get 0 get /Ts exch def /FontInfo get dup
  /UnderlinePosition get Ts mul /To exch def
  /UnderlineThickness get Ts mul /Tt exch def
  ux uy To add cs 10 mul 26 idiv add moveto Tcx uy To add cs 10 mul 26 idiv add lineto
  Tt setlinewidth stroke
  grestore
} bd
/QT {
/Y22 exch store
/X22 exch store
/Y21 exch store
/X21 exch store
currentpoint
/Y21 load 2 mul add 3 div exch
/X21 load 2 mul add 3 div exch
/X21 load 2 mul /X22 load add 3 div
/Y21 load 2 mul /Y22 load add 3 div
/X22 load /Y22 load curveto
} bd
/SSPD {
dup length /d exch dict def
{
/v exch def
/k exch def
currentpagedevice k known {
/cpdv currentpagedevice k get def
v cpdv ne {
/upd false def
/nullv v type /nulltype eq def
/nullcpdv cpdv type /nulltype eq def
nullv nullcpdv or
{
/upd true def
} {
/sametype v type cpdv type eq def
sametype {
v type /arraytype eq {
/vlen v length def
/cpdvlen cpdv length def
vlen cpdvlen eq {
0 1 vlen 1 sub {
/i exch def
/obj v i get def
/cpdobj cpdv i get def
obj cpdobj ne {
/upd true def
exit
} if
} for
} {
/upd true def
} ifelse
} {
v type /dicttype eq {
v {
/dv exch def
/dk exch def
/cpddv cpdv dk get def
dv cpddv ne {
/upd true def
exit
} if
} forall
} {
/upd true def
} ifelse
} ifelse
} if
} ifelse
upd true eq {
d k v put
} if
} if
} if
} forall
d length 0 gt {
d setpagedevice
} if
} bd
%%EndResource
%%BeginResource: procset (Apache XML Graphics EPS ProcSet) 1.0 0
%%Version: 1.0 0
%%Copyright: (Copyright 2002-2003 The Apache Software Foundation. License terms: http://www.apache.org/licenses/LICENSE-2.0)
/BeginEPSF { %def
/b4_Inc_state save def         % Save state for cleanup
/dict_count countdictstack def % Count objects on dict stack
/op_count count 1 sub def      % Count objects on operand stack
userdict begin                 % Push userdict on dict stack
/showpage { } def              % Redefine showpage, { } = null proc
0 setgray 0 setlinecap         % Prepare graphics state
1 setlinewidth 0 setlinejoin
10 setmiterlimit [ ] 0 setdash newpath
/languagelevel where           % If level not equal to 1 then
{pop languagelevel             % set strokeadjust and
1 ne                           % overprint to their defaults.
{false setstrokeadjust false setoverprint
} if
} if
} bd
/EndEPSF { %def
count op_count sub {pop} repeat            % Clean up stacks
countdictstack dict_count sub {end} repeat
b4_Inc_state restore
} bd
%%EndResource
%FOPBeginFontDict
%%IncludeResource: font Courier-Bold
%%IncludeResource: font Helvetica
%%IncludeResource: font Courier-BoldOblique
%%IncludeResource: font Courier-Oblique
%%IncludeResource: font Times-Roman
%%IncludeResource: font Helvetica-BoldOblique
%%IncludeResource: font Helvetica-Bold
%%IncludeResource: font Helvetica-Oblique
%%IncludeResource: font Times-BoldItalic
%%IncludeResource: font Courier
%%IncludeResource: font Times-Italic
%%IncludeResource: font Times-Bold
%%IncludeResource: font Symbol
%%IncludeResource: font ZapfDingbats
%FOPEndFontDict
%%BeginResource: encoding WinAnsiEncoding
/WinAnsiEncoding [
/.notdef /.notdef /.notdef /.notdef /.notdef
/.notdef /.notdef /.notdef /.notdef /.notdef
/.notdef /.notdef /.notdef /.notdef /.notdef
/.notdef /.notdef /.notdef /.notdef /.notdef
/.notdef /.notdef /.notdef /.notdef /.notdef
/.notdef /.notdef /.notdef /.notdef /.notdef
/.notdef /.notdef /space /exclam /quotedbl
/numbersign /dollar /percent /ampersand /quotesingle
/parenleft /parenright /asterisk /plus /comma
/hyphen /period /slash /zero /one
/two /three /four /five /six
/seven /eight /nine /colon /semicolon
/less /equal /greater /question /at
/A /B /C /D /E
/F /G /H /I /J
/K /L /M /N /O
/P /Q /R /S /T
/U /V /W /X /Y
/Z /bracketleft /backslash /bracketright /asciicircum
/underscore /quoteleft /a /b /c
/d /e /f /g /h
/i /j /k /l /m
/n /o /p /q /r
/s /t /u /v /w
/x /y /z /braceleft /bar
/braceright /asciitilde /bullet /Euro /bullet
/quotesinglbase /florin /quotedblbase /ellipsis /dagger
/daggerdbl /circumflex /perthousand /Scaron /guilsinglleft
/OE /bullet /Zcaron /bullet /bullet
/quoteleft /quoteright /quotedblleft /quotedblright /bullet
/endash /emdash /asciitilde /trademark /scaron
/guilsinglright /oe /bullet /zcaron /Ydieresis
/space /exclamdown /cent /sterling /currency
/yen /brokenbar /section /dieresis /copyright
/ordfeminine /guillemotleft /logicalnot /sfthyphen /registered
/macron /degree /plusminus /twosuperior /threesuperior
/acute /mu /paragraph /middot /cedilla
/onesuperior /ordmasculine /guillemotright /onequarter /onehalf
/threequarters /questiondown /Agrave /Aacute /Acircumflex
/Atilde /Adieresis /Aring /AE /Ccedilla
/Egrave /Eacute /Ecircumflex /Edieresis /Igrave
/Iacute /Icircumflex /Idieresis /Eth /Ntilde
/Ograve /Oacute /Ocircumflex /Otilde /Odieresis
/multiply /Oslash /Ugrave /Uacute /Ucircumflex
/Udieresis /Yacute /Thorn /germandbls /agrave
/aacute /acircumflex /atilde /adieresis /aring
/ae /ccedilla /egrave /eacute /ecircumflex
/edieresis /igrave /iacute /icircumflex /idieresis
/eth /ntilde /ograve /oacute /ocircumflex
/otilde /odieresis /divide /oslash /ugrave
/uacute /ucircumflex /udieresis /yacute /thorn
/ydieresis
] def
%%EndResource
%FOPBeginFontReencode
/Courier-Bold findfont
dup length dict begin
  {1 index /FID ne {def} {pop pop} ifelse} forall
  /Encoding WinAnsiEncoding def
  currentdict
end
/Courier-Bold exch definefont pop
/Helvetica findfont
dup length dict begin
  {1 index /FID ne {def} {pop pop} ifelse} forall
  /Encoding WinAnsiEncoding def
  currentdict
end
/Helvetica exch definefont pop
/Courier-BoldOblique findfont
dup length dict begin
  {1 index /FID ne {def} {pop pop} ifelse} forall
  /Encoding WinAnsiEncoding def
  currentdict
end
/Courier-BoldOblique exch definefont pop
/Courier-Oblique findfont
dup length dict begin
  {1 index /FID ne {def} {pop pop} ifelse} forall
  /Encoding WinAnsiEncoding def
  currentdict
end
/Courier-Oblique exch definefont pop
/Times-Roman findfont
dup length dict begin
  {1 index /FID ne {def} {pop pop} ifelse} forall
  /Encoding WinAnsiEncoding def
  currentdict
end
/Times-Roman exch definefont pop
/Helvetica-BoldOblique findfont
dup length dict begin
  {1 index /FID ne {def} {pop pop} ifelse} forall
  /Encoding WinAnsiEncoding def
  currentdict
end
/Helvetica-BoldOblique exch definefont pop
/Helvetica-Bold findfont
dup length dict begin
  {1 index /FID ne {def} {pop pop} ifelse} forall
  /Encoding WinAnsiEncoding def
  currentdict
end
/Helvetica-Bold exch definefont pop
/Helvetica-Oblique findfont
dup length dict begin
  {1 index /FID ne {def} {pop pop} ifelse} forall
  /Encoding WinAnsiEncoding def
  currentdict
end
/Helvetica-Oblique exch definefont pop
/Times-BoldItalic findfont
dup length dict begin
  {1 index /FID ne {def} {pop pop} ifelse} forall
  /Encoding WinAnsiEncoding def
  currentdict
end
/Times-BoldItalic exch definefont pop
/Courier findfont
dup length dict begin
  {1 index /FID ne {def} {pop pop} ifelse} forall
  /Encoding WinAnsiEncoding def
  currentdict
end
/Courier exch definefont pop
/Times-Italic findfont
dup length dict begin
  {1 index /FID ne {def} {pop pop} ifelse} forall
  /Encoding WinAnsiEncoding def
  currentdict
end
/Times-Italic exch definefont pop
/Times-Bold findfont
dup length dict begin
  {1 index /FID ne {def} {pop pop} ifelse} forall
  /Encoding WinAnsiEncoding def
  currentdict
end
/Times-Bold exch definefont pop
%FOPEndFontReencode
%%EndProlog
%%Page: 1 1
%%PageBoundingBox: 0 0 420 224
%%BeginPageSetup
[1 0 0 -1 0 224] CT
%%EndPageSetup
GS
[0.75 0 0 0.75 0 0.5] CT
N
0 0 M
560 0 L
560 298 L
0 298 L
0 0 L
cp
clip
1 GC
N
0 0 560 298 re
f
GR
GS
[0.75 0 0 0.75 0 0.5] CT
1 GC
N
0 0 560 298 re
f
GR
GS
[0.75 0 0 0.75 0 0.5] CT
1 GC
N
73 255 M
507 255 L
507 24 L
73 24 L
cp
f
GR
GS
[0.75 0 0 0.75 0 0.5] CT
0.149 GC
2 setlinecap
1 LJ
0.667 LW
N
73 255 M
507 255 L
S
GR
GS
[0.75 0 0 0.75 0 0.5] CT
0.149 GC
2 setlinecap
1 LJ
0.667 LW
N
73 24 M
507 24 L
S
GR
GS
[0.75 0 0 0.75 0 0.5] CT
0.149 GC
2 setlinecap
1 LJ
0.667 LW
N
73 255 M
73 250.66 L
S
GR
GS
[0.75 0 0 0.75 0 0.5] CT
0.149 GC
2 setlinecap
1 LJ
0.667 LW
N
159.8 255 M
159.8 250.66 L
S
GR
GS
[0.75 0 0 0.75 0 0.5] CT
0.149 GC
2 setlinecap
1 LJ
0.667 LW
N
246.6 255 M
246.6 250.66 L
S
GR
GS
[0.75 0 0 0.75 0 0.5] CT
0.149 GC
2 setlinecap
1 LJ
0.667 LW
N
333.4 255 M
333.4 250.66 L
S
GR
GS
[0.75 0 0 0.75 0 0.5] CT
0.149 GC
2 setlinecap
1 LJ
0.667 LW
N
420.2 255 M
420.2 250.66 L
S
GR
GS
[0.75 0 0 0.75 0 0.5] CT
0.149 GC
2 setlinecap
1 LJ
0.667 LW
N
507 255 M
507 250.66 L
S
GR
GS
[0.75 0 0 0.75 0 0.5] CT
0.149 GC
2 setlinecap
1 LJ
0.667 LW
N
73 24 M
73 28.34 L
S
GR
GS
[0.75 0 0 0.75 0 0.5] CT
0.149 GC
2 setlinecap
1 LJ
0.667 LW
N
159.8 24 M
159.8 28.34 L
S
GR
GS
[0.75 0 0 0.75 0 0.5] CT
0.149 GC
2 setlinecap
1 LJ
0.667 LW
N
246.6 24 M
246.6 28.34 L
S
GR
GS
[0.75 0 0 0.75 0 0.5] CT
0.149 GC
2 setlinecap
1 LJ
0.667 LW
N
333.4 24 M
333.4 28.34 L
S
GR
GS
[0.75 0 0 0.75 0 0.5] CT
0.149 GC
2 setlinecap
1 LJ
0.667 LW
N
420.2 24 M
420.2 28.34 L
S
GR
GS
[0.75 0 0 0.75 0 0.5] CT
0.149 GC
2 setlinecap
1 LJ
0.667 LW
N
507 24 M
507 28.34 L
S
GR
GS
[0.75 0 0 0.75 54.75 195.75001] CT
0.149 GC
/Helvetica 13 F
GS
[1 0 0 1 0 0] CT
-4 14 moveto 
1 -1 scale
(0) t 
GR
GR
GS
[0.75 0 0 0.75 119.85 195.75001] CT
0.149 GC
/Helvetica 13 F
GS
[1 0 0 1 0 0] CT
-4 14 moveto 
1 -1 scale
(5) t 
GR
GR
GS
[0.75 0 0 0.75 184.95 195.75001] CT
0.149 GC
/Helvetica 13 F
GS
[1 0 0 1 0 0] CT
-7.5 14 moveto 
1 -1 scale
(10) t 
GR
GR
GS
[0.75 0 0 0.75 250.05 195.75001] CT
0.149 GC
/Helvetica 13 F
GS
[1 0 0 1 0 0] CT
-7.5 14 moveto 
1 -1 scale
(15) t 
GR
GR
GS
[0.75 0 0 0.75 315.15001 195.75001] CT
0.149 GC
/Helvetica 13 F
GS
[1 0 0 1 0 0] CT
-7.5 14 moveto 
1 -1 scale
(20) t 
GR
GR
GS
[0.75 0 0 0.75 380.25 195.75001] CT
0.149 GC
/Helvetica 13 F
GS
[1 0 0 1 0 0] CT
-7.5 14 moveto 
1 -1 scale
(25) t 
GR
GR
GS
[0.75 0 0 0.75 217.50016 208.74999] CT
0.149 GC
/Helvetica 15 F
GS
[1 0 0 1 0 0] CT
-22 16 moveto 
1 -1 scale
(RMSE) t 
GR
GR
GS
[0.75 0 0 0.75 0 0.5] CT
0.149 GC
2 setlinecap
1 LJ
0.667 LW
N
73 255 M
73 24 L
S
GR
GS
[0.75 0 0 0.75 0 0.5] CT
0.149 GC
2 setlinecap
1 LJ
0.667 LW
N
507 255 M
507 24 L
S
GR
GS
[0.75 0 0 0.75 0 0.5] CT
0.149 GC
2 setlinecap
1 LJ
0.667 LW
N
73 255 M
77.34 255 L
S
GR
GS
[0.75 0 0 0.75 0 0.5] CT
0.149 GC
2 setlinecap
1 LJ
0.667 LW
N
73 216.5 M
77.34 216.5 L
S
GR
GS
[0.75 0 0 0.75 0 0.5] CT
0.149 GC
2 setlinecap
1 LJ
0.667 LW
N
73 178 M
77.34 178 L
S
GR
GS
[0.75 0 0 0.75 0 0.5] CT
0.149 GC
2 setlinecap
1 LJ
0.667 LW
N
73 139.5 M
77.34 139.5 L
S
GR
GS
[0.75 0 0 0.75 0 0.5] CT
0.149 GC
2 setlinecap
1 LJ
0.667 LW
N
73 101 M
77.34 101 L
S
GR
GS
[0.75 0 0 0.75 0 0.5] CT
0.149 GC
2 setlinecap
1 LJ
0.667 LW
N
73 62.5 M
77.34 62.5 L
S
GR
GS
[0.75 0 0 0.75 0 0.5] CT
0.149 GC
2 setlinecap
1 LJ
0.667 LW
N
73 24 M
77.34 24 L
S
GR
GS
[0.75 0 0 0.75 0 0.5] CT
0.149 GC
2 setlinecap
1 LJ
0.667 LW
N
507 255 M
502.66 255 L
S
GR
GS
[0.75 0 0 0.75 0 0.5] CT
0.149 GC
2 setlinecap
1 LJ
0.667 LW
N
507 216.5 M
502.66 216.5 L
S
GR
GS
[0.75 0 0 0.75 0 0.5] CT
0.149 GC
2 setlinecap
1 LJ
0.667 LW
N
507 178 M
502.66 178 L
S
GR
GS
[0.75 0 0 0.75 0 0.5] CT
0.149 GC
2 setlinecap
1 LJ
0.667 LW
N
507 139.5 M
502.66 139.5 L
S
GR
GS
[0.75 0 0 0.75 0 0.5] CT
0.149 GC
2 setlinecap
1 LJ
0.667 LW
N
507 101 M
502.66 101 L
S
GR
GS
[0.75 0 0 0.75 0 0.5] CT
0.149 GC
2 setlinecap
1 LJ
0.667 LW
N
507 62.5 M
502.66 62.5 L
S
GR
GS
[0.75 0 0 0.75 0 0.5] CT
0.149 GC
2 setlinecap
1 LJ
0.667 LW
N
507 24 M
502.66 24 L
S
GR
GS
[0.75 0 0 0.75 50.75 191.75] CT
0.149 GC
/Helvetica 13 F
GS
[1 0 0 1 0 0] CT
-8 5.5 moveto 
1 -1 scale
(0) t 
GR
GR
GS
[0.75 0 0 0.75 50.75 162.875] CT
0.149 GC
/Helvetica 13 F
GS
[1 0 0 1 0 0] CT
-15 5.5 moveto 
1 -1 scale
(50) t 
GR
GR
GS
[0.75 0 0 0.75 50.75 134] CT
0.149 GC
/Helvetica 13 F
GS
[1 0 0 1 0 0] CT
-22 5.5 moveto 
1 -1 scale
(100) t 
GR
GR
GS
[0.75 0 0 0.75 50.75 105.125] CT
0.149 GC
/Helvetica 13 F
GS
[1 0 0 1 0 0] CT
-22 5.5 moveto 
1 -1 scale
(150) t 
GR
GR
GS
[0.75 0 0 0.75 50.75 76.25] CT
0.149 GC
/Helvetica 13 F
GS
[1 0 0 1 0 0] CT
-22 5.5 moveto 
1 -1 scale
(200) t 
GR
GR
GS
[0.75 0 0 0.75 50.75 47.375] CT
0.149 GC
/Helvetica 13 F
GS
[1 0 0 1 0 0] CT
-22 5.5 moveto 
1 -1 scale
(250) t 
GR
GR
GS
[0.75 0 0 0.75 50.75 18.5] CT
0.149 GC
/Helvetica 13 F
GS
[1 0 0 1 0 0] CT
-22 5.5 moveto 
1 -1 scale
(300) t 
GR
GR
GS
[0 -0.75 0.75 0 31.25 105.12492] CT
0.149 GC
/Helvetica 15 F
GS
[1 0 0 1 0 0] CT
-20.5 -4 moveto 
1 -1 scale
(Count) t 
GR
GR
GS
[0.75 0 0 0.75 217.50021 16.42854] CT
/Helvetica-Bold 15 F
GS
[1 0 0 1 0 0] CT
-105.5 -4 moveto 
1 -1 scale
(Fitting Luciferase with p = 0.9) t 
GR
GR
GS
[0.75 0 0 0.75 0 0.5] CT
0.149 GC
1 LJ
0.667 LW
N
73 255 M
507 255 L
S
GR
GS
[0.75 0 0 0.75 0 0.5] CT
0.208 0.165 0.525 RC
N
97.304 255 M
110.498 255 L
110.498 234.98 L
97.304 234.98 L
cp
f
GR
GS
[0.75 0 0 0.75 0 0.5] CT
0.208 0.165 0.525 RC
N
110.498 255 M
123.691 255 L
123.691 157.21 L
110.498 157.21 L
cp
f
GR
GS
[0.75 0 0 0.75 0 0.5] CT
0.208 0.165 0.525 RC
N
123.691 255 M
136.885 255 L
136.885 65.58 L
123.691 65.58 L
cp
f
GR
GS
[0.75 0 0 0.75 0 0.5] CT
0.208 0.165 0.525 RC
N
136.885 255 M
150.078 255 L
150.078 27.85 L
136.885 27.85 L
cp
f
GR
GS
[0.75 0 0 0.75 0 0.5] CT
0.208 0.165 0.525 RC
N
150.078 255 M
163.272 255 L
163.272 47.87 L
150.078 47.87 L
cp
f
GR
GS
[0.75 0 0 0.75 0 0.5] CT
0.208 0.165 0.525 RC
N
163.272 255 M
176.466 255 L
176.466 47.1 L
163.272 47.1 L
cp
f
GR
GS
[0.75 0 0 0.75 0 0.5] CT
0.208 0.165 0.525 RC
N
176.466 255 M
189.659 255 L
189.659 55.57 L
176.466 55.57 L
cp
f
GR
GS
[0.75 0 0 0.75 0 0.5] CT
0.208 0.165 0.525 RC
N
189.659 255 M
202.853 255 L
202.853 51.72 L
189.659 51.72 L
cp
f
GR
GS
[0.75 0 0 0.75 0 0.5] CT
0.208 0.165 0.525 RC
N
202.853 255 M
216.046 255 L
216.046 74.82 L
202.853 74.82 L
cp
f
GR
GS
[0.75 0 0 0.75 0 0.5] CT
0.208 0.165 0.525 RC
N
216.046 255 M
229.24 255 L
229.24 97.92 L
216.046 97.92 L
cp
f
GR
GS
[0.75 0 0 0.75 0 0.5] CT
0.208 0.165 0.525 RC
N
229.24 255 M
242.434 255 L
242.434 110.24 L
229.24 110.24 L
cp
f
GR
GS
[0.75 0 0 0.75 0 0.5] CT
0.208 0.165 0.525 RC
N
242.434 255 M
255.627 255 L
255.627 157.21 L
242.434 157.21 L
cp
f
GR
GS
[0.75 0 0 0.75 0 0.5] CT
0.208 0.165 0.525 RC
N
255.627 255 M
268.821 255 L
268.821 159.52 L
255.627 159.52 L
cp
f
GR
GS
[0.75 0 0 0.75 0 0.5] CT
0.208 0.165 0.525 RC
N
268.821 255 M
282.014 255 L
282.014 191.86 L
268.821 191.86 L
cp
f
GR
GS
[0.75 0 0 0.75 0 0.5] CT
0.208 0.165 0.525 RC
N
282.014 255 M
295.208 255 L
295.208 201.87 L
282.014 201.87 L
cp
f
GR
GS
[0.75 0 0 0.75 0 0.5] CT
0.208 0.165 0.525 RC
N
295.208 255 M
308.402 255 L
308.402 213.42 L
295.208 213.42 L
cp
f
GR
GS
[0.75 0 0 0.75 0 0.5] CT
0.208 0.165 0.525 RC
N
308.402 255 M
321.595 255 L
321.595 222.66 L
308.402 222.66 L
cp
f
GR
GS
[0.75 0 0 0.75 0 0.5] CT
0.208 0.165 0.525 RC
N
321.595 255 M
334.789 255 L
334.789 224.97 L
321.595 224.97 L
cp
f
GR
GS
[0.75 0 0 0.75 0 0.5] CT
0.208 0.165 0.525 RC
N
334.789 255 M
347.982 255 L
347.982 229.59 L
334.789 229.59 L
cp
f
GR
GS
[0.75 0 0 0.75 0 0.5] CT
0.208 0.165 0.525 RC
N
347.982 255 M
361.176 255 L
361.176 237.29 L
347.982 237.29 L
cp
f
GR
GS
[0.75 0 0 0.75 0 0.5] CT
0.208 0.165 0.525 RC
N
361.176 255 M
374.37 255 L
374.37 233.44 L
361.176 233.44 L
cp
f
GR
GS
[0.75 0 0 0.75 0 0.5] CT
0.208 0.165 0.525 RC
N
374.37 255 M
387.563 255 L
387.563 244.22 L
374.37 244.22 L
cp
f
GR
GS
[0.75 0 0 0.75 0 0.5] CT
0.208 0.165 0.525 RC
N
387.563 255 M
400.757 255 L
400.757 244.22 L
387.563 244.22 L
cp
f
GR
GS
[0.75 0 0 0.75 0 0.5] CT
0.208 0.165 0.525 RC
N
400.757 255 M
413.95 255 L
413.95 246.53 L
400.757 246.53 L
cp
f
GR
GS
[0.75 0 0 0.75 0 0.5] CT
0.208 0.165 0.525 RC
N
413.95 255 M
427.144 255 L
427.144 244.99 L
413.95 244.99 L
cp
f
GR
GS
[0.75 0 0 0.75 0 0.5] CT
0.208 0.165 0.525 RC
N
427.144 255 M
440.338 255 L
440.338 247.3 L
427.144 247.3 L
cp
f
GR
GS
[0.75 0 0 0.75 0 0.5] CT
0.208 0.165 0.525 RC
N
440.338 255 M
453.531 255 L
453.531 249.61 L
440.338 249.61 L
cp
f
GR
GS
[0.75 0 0 0.75 0 0.5] CT
0.208 0.165 0.525 RC
N
453.531 255 M
466.725 255 L
466.725 246.53 L
453.531 246.53 L
cp
f
GR
GS
[0.75 0 0 0.75 0 0.5] CT
0.208 0.165 0.525 RC
N
466.725 255 M
479.918 255 L
479.918 254.23 L
466.725 254.23 L
cp
f
GR
GS
[0.75 0 0 0.75 0 0.5] CT
0.208 0.165 0.525 RC
N
479.918 255 M
493.112 255 L
493.112 253.46 L
479.918 253.46 L
cp
f
GR
GS
[0.75 0 0 0.75 0 0.5] CT
10.0 ML
0.667 LW
N
97.304 255 M
97.304 234.98 L
110.498 234.98 L
110.498 255 L
cp
S
GR
GS
[0.75 0 0 0.75 0 0.5] CT
10.0 ML
0.667 LW
N
110.498 255 M
110.498 157.21 L
123.691 157.21 L
123.691 255 L
cp
S
GR
GS
[0.75 0 0 0.75 0 0.5] CT
10.0 ML
0.667 LW
N
123.691 255 M
123.691 65.58 L
136.885 65.58 L
136.885 255 L
cp
S
GR
GS
[0.75 0 0 0.75 0 0.5] CT
10.0 ML
0.667 LW
N
136.885 255 M
136.885 27.85 L
150.078 27.85 L
150.078 255 L
cp
S
GR
GS
[0.75 0 0 0.75 0 0.5] CT
10.0 ML
0.667 LW
N
150.078 255 M
150.078 47.87 L
163.272 47.87 L
163.272 255 L
cp
S
GR
GS
[0.75 0 0 0.75 0 0.5] CT
10.0 ML
0.667 LW
N
163.272 255 M
163.272 47.1 L
176.466 47.1 L
176.466 255 L
cp
S
GR
GS
[0.75 0 0 0.75 0 0.5] CT
10.0 ML
0.667 LW
N
176.466 255 M
176.466 55.57 L
189.659 55.57 L
189.659 255 L
cp
S
GR
GS
[0.75 0 0 0.75 0 0.5] CT
10.0 ML
0.667 LW
N
189.659 255 M
189.659 51.72 L
202.853 51.72 L
202.853 255 L
cp
S
GR
GS
[0.75 0 0 0.75 0 0.5] CT
10.0 ML
0.667 LW
N
202.853 255 M
202.853 74.82 L
216.046 74.82 L
216.046 255 L
cp
S
GR
GS
[0.75 0 0 0.75 0 0.5] CT
10.0 ML
0.667 LW
N
216.046 255 M
216.046 97.92 L
229.24 97.92 L
229.24 255 L
cp
S
GR
GS
[0.75 0 0 0.75 0 0.5] CT
10.0 ML
0.667 LW
N
229.24 255 M
229.24 110.24 L
242.434 110.24 L
242.434 255 L
cp
S
GR
GS
[0.75 0 0 0.75 0 0.5] CT
10.0 ML
0.667 LW
N
242.434 255 M
242.434 157.21 L
255.627 157.21 L
255.627 255 L
cp
S
GR
GS
[0.75 0 0 0.75 0 0.5] CT
10.0 ML
0.667 LW
N
255.627 255 M
255.627 159.52 L
268.821 159.52 L
268.821 255 L
cp
S
GR
GS
[0.75 0 0 0.75 0 0.5] CT
10.0 ML
0.667 LW
N
268.821 255 M
268.821 191.86 L
282.014 191.86 L
282.014 255 L
cp
S
GR
GS
[0.75 0 0 0.75 0 0.5] CT
10.0 ML
0.667 LW
N
282.014 255 M
282.014 201.87 L
295.208 201.87 L
295.208 255 L
cp
S
GR
GS
[0.75 0 0 0.75 0 0.5] CT
10.0 ML
0.667 LW
N
295.208 255 M
295.208 213.42 L
308.402 213.42 L
308.402 255 L
cp
S
GR
GS
[0.75 0 0 0.75 0 0.5] CT
10.0 ML
0.667 LW
N
308.402 255 M
308.402 222.66 L
321.595 222.66 L
321.595 255 L
cp
S
GR
GS
[0.75 0 0 0.75 0 0.5] CT
10.0 ML
0.667 LW
N
321.595 255 M
321.595 224.97 L
334.789 224.97 L
334.789 255 L
cp
S
GR
GS
[0.75 0 0 0.75 0 0.5] CT
10.0 ML
0.667 LW
N
334.789 255 M
334.789 229.59 L
347.982 229.59 L
347.982 255 L
cp
S
GR
GS
[0.75 0 0 0.75 0 0.5] CT
10.0 ML
0.667 LW
N
347.982 255 M
347.982 237.29 L
361.176 237.29 L
361.176 255 L
cp
S
GR
GS
[0.75 0 0 0.75 0 0.5] CT
10.0 ML
0.667 LW
N
361.176 255 M
361.176 233.44 L
374.37 233.44 L
374.37 255 L
cp
S
GR
GS
[0.75 0 0 0.75 0 0.5] CT
10.0 ML
0.667 LW
N
374.37 255 M
374.37 244.22 L
387.563 244.22 L
387.563 255 L
cp
S
GR
GS
[0.75 0 0 0.75 0 0.5] CT
10.0 ML
0.667 LW
N
387.563 255 M
387.563 244.22 L
400.757 244.22 L
400.757 255 L
cp
S
GR
GS
[0.75 0 0 0.75 0 0.5] CT
10.0 ML
0.667 LW
N
400.757 255 M
400.757 246.53 L
413.95 246.53 L
413.95 255 L
cp
S
GR
GS
[0.75 0 0 0.75 0 0.5] CT
10.0 ML
0.667 LW
N
413.95 255 M
413.95 244.99 L
427.144 244.99 L
427.144 255 L
cp
S
GR
GS
[0.75 0 0 0.75 0 0.5] CT
10.0 ML
0.667 LW
N
427.144 255 M
427.144 247.3 L
440.338 247.3 L
440.338 255 L
cp
S
GR
GS
[0.75 0 0 0.75 0 0.5] CT
10.0 ML
0.667 LW
N
440.338 255 M
440.338 249.61 L
453.531 249.61 L
453.531 255 L
cp
S
GR
GS
[0.75 0 0 0.75 0 0.5] CT
10.0 ML
0.667 LW
N
453.531 255 M
453.531 246.53 L
466.725 246.53 L
466.725 255 L
cp
S
GR
GS
[0.75 0 0 0.75 0 0.5] CT
10.0 ML
0.667 LW
N
466.725 255 M
466.725 254.23 L
479.918 254.23 L
479.918 255 L
cp
S
GR
GS
[0.75 0 0 0.75 0 0.5] CT
10.0 ML
0.667 LW
N
479.918 255 M
479.918 253.46 L
493.112 253.46 L
493.112 255 L
cp
S
GR
GS
[0.75 0 0 0.75 0 0.5] CT
1 0 0 RC
1 LJ
2.667 LW
N
89.543 245.299 M
93.496 237.982 L
97.45 228.573 L
101.403 217.309 L
105.357 204.518 L
109.31 190.577 L
113.264 175.877 L
117.217 160.799 L
121.171 145.704 L
125.124 130.913 L
129.078 116.708 L
133.031 103.325 L
136.985 90.953 L
140.938 79.739 L
144.892 69.788 L
148.845 61.166 L
152.799 53.909 L
156.752 48.021 L
160.706 43.482 L
164.659 40.252 L
168.613 38.272 L
172.566 37.473 L
176.52 37.775 L
180.474 39.092 L
184.427 41.332 L
188.381 44.403 L
192.334 48.212 L
196.288 52.666 L
200.241 57.679 L
204.195 63.163 L
208.148 69.038 L
212.102 75.229 L
216.055 81.664 L
220.009 88.278 L
223.962 95.013 L
227.916 101.813 L
231.869 108.631 L
235.823 115.424 L
239.776 122.153 L
243.73 128.786 L
247.683 135.294 L
251.637 141.653 L
255.59 147.844 L
259.544 153.848 L
263.497 159.654 L
267.451 165.251 L
271.404 170.632 L
275.358 175.791 L
279.311 180.726 L
283.265 185.436 L
S
GR
GS
[0.75 0 0 0.75 0 0.5] CT
1 0 0 RC
1 LJ
2.667 LW
N
279.311 180.726 M
283.265 185.436 L
287.218 189.92 L
291.172 194.183 L
295.125 198.226 L
299.079 202.054 L
303.033 205.673 L
306.986 209.087 L
310.94 212.305 L
314.893 215.332 L
318.847 218.177 L
322.8 220.845 L
326.754 223.346 L
330.707 225.687 L
334.661 227.875 L
338.614 229.918 L
342.568 231.824 L
346.521 233.599 L
350.475 235.252 L
354.428 236.79 L
358.382 238.218 L
362.335 239.543 L
366.289 240.773 L
370.242 241.912 L
374.196 242.967 L
378.149 243.943 L
382.103 244.845 L
386.056 245.679 L
390.01 246.449 L
393.963 247.159 L
397.917 247.813 L
401.87 248.416 L
405.824 248.971 L
409.777 249.482 L
413.731 249.952 L
417.684 250.384 L
421.638 250.78 L
425.591 251.145 L
429.545 251.479 L
433.499 251.785 L
437.452 252.066 L
441.406 252.324 L
445.359 252.559 L
449.313 252.775 L
453.266 252.973 L
457.22 253.153 L
461.173 253.318 L
465.127 253.469 L
469.08 253.607 L
473.034 253.732 L
476.987 253.847 L
480.941 253.952 L
S
GR
GS
[0.75 0 0 0.75 0 0.5] CT
1 0 0 RC
1 LJ
2.667 LW
N
476.987 253.847 M
480.941 253.952 L
S
GR
GS
[0.75 0 0 0.75 0 0.5] CT
1 GC
N
382 75 M
382 37 L
494 37 L
494 75 L
cp
f
GR
GS
[0.75 0 0 0.75 325.5 36.25] CT
/Helvetica 12 F
GS
[1 0 0 1 0 0] CT
0 5 moveto 
1 -1 scale
(Data) t 
GR
GR
GS
[0.75 0 0 0.75 0 0.5] CT
0.208 0.165 0.525 RC
N
390 53.733 M
390 41.6 L
430 41.6 L
430 53.733 L
cp
f
GR
GS
[0.75 0 0 0.75 0 0.5] CT
10.0 ML
0.667 LW
N
390 53.733 M
390 41.6 L
430 41.6 L
430 53.733 L
cp
S
GR
GS
[0.75 0 0 0.75 325.5 48.75] CT
/Helvetica 12 F
GS
[1 0 0 1 0 0] CT
0 5 moveto 
1 -1 scale
(Gamma fit) t 
GR
GR
GS
[0.75 0 0 0.75 0 0.5] CT
1 0 0 RC
1 LJ
2.667 LW
N
390 64.333 M
430 64.333 L
S
GR
GS
[0.75 0 0 0.75 0 0.5] CT
0.149 GC
10.0 ML
0.667 LW
N
382 75 M
382 37 L
494 37 L
494 75 L
cp
S
GR
%%Trailer
%%Pages: 1
%%EOF
